<?xml version="1.0" encoding="UTF-8" standalone="no"?>
<!-- Created with Inkscape (http://www.inkscape.org/) -->

<svg
   width="20.860132mm"
   height="28mm"
   viewBox="0 0 20.860132 28"
   version="1.1"
   id="svg1"
   sodipodi:docname="Man3.svg"
   inkscape:version="1.3.1 (91b66b0783, 2023-11-16)"
   xmlns:inkscape="http://www.inkscape.org/namespaces/inkscape"
   xmlns:sodipodi="http://sodipodi.sourceforge.net/DTD/sodipodi-0.dtd"
   xmlns="http://www.w3.org/2000/svg"
   xmlns:svg="http://www.w3.org/2000/svg">
  <sodipodi:namedview
     id="namedview1"
     pagecolor="#ffffff"
     bordercolor="#000000"
     borderopacity="0.25"
     inkscape:showpageshadow="2"
     inkscape:pageopacity="0.0"
     inkscape:pagecheckerboard="0"
     inkscape:deskcolor="#d1d1d1"
     inkscape:document-units="mm"
     inkscape:zoom="5.8356546"
     inkscape:cx="48.580668"
     inkscape:cy="68.372792"
     inkscape:window-width="2560"
     inkscape:window-height="1362"
     inkscape:window-x="0"
     inkscape:window-y="0"
     inkscape:window-maximized="1"
     inkscape:current-layer="layer2" />
  <defs
     id="defs1" />
  <g
     inkscape:label="Border"
     inkscape:groupmode="layer"
     id="layer1"
     transform="translate(-1.0583318,-9.2604152)"
     sodipodi:insensitive="true">
    <g
       transform="matrix(0.26215626,0,0,0.24144272,80.829458,-90.453708)"
       id="layer1-26"
       inkscape:label="Layer 1">
      <rect
         style="fill:#ffffff;stroke:#000000;stroke-width:1.009;stroke-miterlimit:4;stroke-dasharray:none;stroke-dashoffset:0;stroke-opacity:1"
         id="rect6731-9-76"
         width="78.56237"
         height="114.96053"
         x="-303.78397"
         y="413.49738"
         ry="5.4056678" />
    </g>
  </g>
  <g
     inkscape:groupmode="layer"
     id="layer2"
     inkscape:label="Border 1">
    <g
       id="layer19"
       inkscape:label="3"
       style="display:inline"
       transform="matrix(0.26458333,0,0,0.26458333,-63.991223,-39.216863)">
      <g
         id="layer124-3-6"
         inkscape:label="Man Character"
         style="display:inline"
         transform="translate(442.86421)">
        <path
           id="use19471-6-2"
           style="display:inline;fill:#961919;fill-opacity:1;stroke-width:1"
           inkscape:label="Bottom"
           d="m -154.06648,210.30274 c -0.21387,-6.5e-4 -0.46362,0.0221 -0.75586,0.0722 -1.16896,0.20078 -10.2026,2.58317 -12.38281,3.34376 -2.1802,0.76058 -3.50428,1.68631 -5.25195,1.53515 -0.66422,-0.0575 -1.50308,-0.13902 -1.79492,0.004 -0.76159,0.37299 -0.70929,1.56114 -0.59766,2.47264 0.11163,0.91151 0.74237,11.97228 0.92969,12.54297 0.18732,0.57068 1.29569,1.73478 1.59374,1.77345 0.29807,0.0387 0.97146,-0.85307 1.04493,-1.49024 0.0734,-0.63715 -0.14632,-1.61002 -0.0391,-1.99804 0.10726,-0.38805 0.54634,-0.56112 0.9082,-0.61524 0.3777,-0.0565 0.76624,-0.0553 1.14845,-0.0859 0.42067,-0.0338 0.91092,-0.20096 0.99218,0.94727 0.0813,1.14822 0.23386,2.07183 0.0196,2.53515 -0.21432,0.46333 -0.23735,0.70358 -1.0996,0.98242 -0.86225,0.27886 -3.82367,1.26393 -4.31055,1.37891 -0.48688,0.11497 -0.92954,0.60869 -1.14844,-0.46874 -0.2189,-1.07745 -1.74362,-6.98844 -1.94531,-7.69532 -0.2017,-0.70686 -0.72663,-1.62201 -1.4336,-1.63868 -0.70696,-0.0167 -1.23137,-0.15834 -1.66015,-0.006 -0.42878,0.15276 -0.15248,0.51351 -0.0293,1.39844 0.12317,0.88493 1.39967,6.97849 1.56249,7.61719 0.16282,0.63871 0.39043,1.10321 -0.65624,1.04687 -1.04669,-0.0563 -3.25469,-0.39148 -4.3379,-0.74609 -1.08321,-0.35461 -1.80725,-0.47203 -2.22656,-0.25586 -0.41931,0.21616 -0.88468,1.29068 -0.33594,1.93555 0.54874,0.64488 1.36666,2.06071 2.07227,2.38867 0.70561,0.32796 1.99827,0.34015 2.81641,0.22656 0.81813,-0.11359 1.93006,-0.44781 2.91406,-0.48047 0.6139,-0.0204 1.00369,0.0859 1.16015,1.0586 0.15646,0.97275 0.57717,3.7689 1.42188,4.83398 0.84471,1.06509 2.0274,2.25898 2.23047,2.28516 0.20307,0.0262 0.69789,-0.9569 0.8164,-1.38477 0.11852,-0.42786 0.14225,-0.9965 0.0488,-1.6582 -0.14246,-1.00906 0.151,-1.54107 0.92774,-1.00977 0.59893,0.40968 1.523,0.92791 2.35742,1.02149 0.83443,0.0936 1.85061,-0.11607 2.39063,-0.53906 0.54001,-0.423 1.15198,-1.28097 1.63671,-1.35157 0.48473,-0.0706 1.55405,0.7402 2.33008,1.17774 0.77603,0.43754 9.44614,4.04004 9.99805,4.27539 0.5519,0.23535 1.40619,0.35928 2.05664,0.11719 3.60882,-1.52499 6.8673,-2.58021 10.64648,-4.30665 1.16852,-0.41069 2.07529,-1.44903 1.79102,-2.6621 -0.29204,-1.24623 -0.46594,-2.40904 -0.6582,-3.4629 -0.11399,-0.62477 -0.10142,-0.91617 -1.14649,-1.52148 -1.04507,-0.6053 -3.8417,-2.43896 -6,-3.05273 -2.66878,-0.75895 -8.08917,-1.61089 -8.53125,-1.79688 -0.44208,-0.18599 -0.32617,-0.32472 -0.32617,-0.84961 0,-0.52489 0.17232,-5.58058 0.74023,-8.63672 0.56792,-3.05612 1.34401,-3.21538 1.32422,-5.28906 -0.0111,-1.16266 0.32377,-2.94542 0,-3.40625 -0.24282,-0.34563 -0.56931,-0.56055 -1.21093,-0.5625 z m -5.75781,4.94336 c 0.43783,0.007 0.2005,0.65584 0.0469,1.46093 -0.15362,0.80511 -0.49014,1.26757 -1.02344,1.61718 -0.76153,0.49924 -2.18778,0.52779 -3.24414,0.60939 -0.35899,0.0277 -0.67573,0.004 -1.0332,-0.31642 -0.21871,-0.19221 -0.0805,-0.76032 0.0273,-1.32422 0.1078,-0.5639 0.78626,-0.90944 1.32617,-1.11327 1.25663,-0.47441 3.46256,-0.9406 3.90039,-0.93359 z m -10.78711,2.69335 c 0.22929,3.6e-4 0.49598,0.014 0.82422,0.004 0.87529,-0.0269 0.88614,0.36293 0.99218,0.9629 0.10606,0.59997 0.0152,1.16921 -0.29101,1.62696 -0.28745,0.42974 -1.56529,0.48623 -2.15625,0.45703 -0.47282,-0.0234 -0.55117,-0.76137 -0.58008,-1.15039 0,0 -0.0422,-0.49734 0.002,-0.90625 0.0442,-0.40892 0.0623,-0.56017 0.25977,-0.72266 0.28857,-0.2374 0.56708,-0.2721 0.94922,-0.27149 z m 9.95508,3.14258 c 0.34767,0.009 0.43902,0.18584 0.47461,0.5332 0.0438,0.42753 -0.0223,0.99071 -0.0703,1.60742 -0.0481,0.61672 -1.07167,0.79626 -1.5586,0.81836 0,0 -1.87585,0.10743 -2.41406,0.10743 -0.53821,0 -0.75781,-0.16965 -1.06836,-0.41212 -0.31055,-0.24245 0.0138,-0.75811 0.19726,-1.09179 0.18346,-0.33368 0.40208,-0.51057 0.68946,-0.66211 0.28738,-0.15154 2.87989,-0.79621 3.4668,-0.87891 0.11004,-0.0155 0.20296,-0.0236 0.2832,-0.0214 z m -8.89258,2.08985 c 0.1642,0.002 0.33718,0.0248 0.52539,0.0742 0.75287,0.19787 0.61328,0.57329 0.61328,1.20507 0,0.63179 -0.18274,0.88357 -0.50781,1.14649 -0.43891,0.35542 -1.10603,0.46494 -1.6582,0.34766 -0.39648,-0.0842 -0.68612,-0.25909 -0.98633,-0.7129 -0.30021,-0.4538 0.0641,-1.17158 0.64648,-1.56055 0.46686,-0.31157 0.87461,-0.50581 1.36719,-0.49999 z m 8.88868,3.77148 c 0.4563,0.004 0.83397,0.35452 0.83397,0.86915 0,0.5489 -0.004,1.53983 -0.004,2.20507 0,0.66523 -0.21594,0.89781 -0.94336,0.91211 -0.72743,0.0143 -2.64983,0.57729 -3.38867,0.92968 -0.50788,0.19568 -0.7599,-0.14034 -0.79492,-0.49805 -0.0351,-0.35771 0.0581,-1.98661 0.0937,-2.79686 0.0356,-0.81025 0.85077,-0.95753 1.43556,-1.11719 0.88008,-0.24031 1.77208,-0.4166 2.67577,-0.5 0.0311,-0.003 0.0614,-0.004 0.0918,-0.004 z m 8.10741,5.60157 c 0.36684,0.002 0.825,0.073 1.3418,0.14842 1.37815,0.201 3.95652,1.68654 5.14062,2.5586 1.18411,0.87205 0.0441,1.95333 -0.76171,2.55859 -0.80581,0.60526 -7.98257,3.6457 -8.58594,3.96094 v 0.002 c -1.30847,0.7425 -2.47348,0.16572 -3.01953,-0.0566 -0.54605,-0.22237 -2.41896,-1.27153 -3.12109,-1.72265 -0.70214,-0.45111 -0.52835,-0.80677 -0.25195,-1.16211 0.27639,-0.35533 1.2558,-0.97755 1.60351,-1.18164 0.37861,-0.22269 0.89398,-0.49834 1.08789,-0.22071 0.19391,0.27762 0.003,1.22664 0.12499,1.74805 0.12146,0.52138 0.93017,0.69923 1.59376,0.48047 0.66359,-0.21877 2.89321,-1.16328 3.69141,-1.48828 0.79818,-0.325 0.62141,-0.81388 0.59765,-1.37305 -0.0238,-0.55916 -0.24209,-2.32527 -0.34375,-3.39844 -0.0635,-0.67073 0.29095,-0.85756 0.90234,-0.85351 z m -8.18359,1.28125 c 0.63983,0 0.80629,0.0469 0.92383,0.34569 0.11753,0.29887 0.0818,0.77274 0.0664,1.12305 -0.0153,0.35033 -0.1364,0.45018 -0.35742,0.55469 -0.60173,0.28453 -1.17435,0.56231 -1.80469,0.85546 -0.55344,0.25739 -1.21943,0.28033 -1.83985,0.28125 -0.31769,4.7e-4 -0.63849,-0.0303 -0.9414,-0.14061 -0.32229,-0.11657 -0.23123,-1.18524 -0.0859,-1.58203 0.14529,-0.39678 0.31389,-0.62908 1.01953,-0.83008 0.94992,-0.27058 2.3797,-0.60742 3.01953,-0.60742 z m -8.20117,2.26561 c 0.4178,0.006 0.47043,0.32459 0.51172,0.56641 0.0508,0.29763 0.0648,0.71943 -0.043,1.49805 -0.10775,0.77859 -0.42834,0.98159 -0.8711,1.20117 -0.39988,0.19832 -0.67581,0.35721 -1.3164,0.61328 -0.55014,0.21994 -1.04503,0.24133 -1.45118,-0.0508 -0.41778,-0.30048 -0.69207,-0.70948 -1.01758,-1.31641 -0.32735,-0.6104 0.63905,-1.27823 1.03516,-1.49219 0.39612,-0.21397 2.05458,-0.77234 2.79883,-0.96875 0.13955,-0.0368 0.2571,-0.0522 0.35352,-0.0508 z" />
        <path
           d="m -174.18617,212.88769 c 1.34719,-0.0865 2.68668,-0.33159 3.99516,-0.66368 5.20169,-1.32015 9.99911,-4.00476 15.2181,-5.25476 2.67214,-0.64001 3.60577,-0.60888 5.41204,-0.47775 1.95004,0.14157 4.58319,2.45551 5.707,1.35428 1.12383,-1.10124 5.51875,-4.11273 2.09548,-4.33496 -3.42327,-0.22223 -10.47329,-0.29438 -12.18856,0.30978 -1.71526,0.60415 -2.98106,0.99027 -3.9516,0.99927 -0.9385,0.009 -0.96823,-0.67731 -0.21516,-1.67106 0.75307,-0.99375 3.12415,-3.34819 2.4675,-6.42609 -0.65665,-3.07792 -1.27833,-5.22474 -2.28441,-4.73307 -1.00608,0.49166 -3.67875,2.25211 -3.98207,2.95754 -0.30332,0.70545 0.10744,8.5676 0.1381,9.13991 0.0306,0.57232 -0.058,1.05289 -0.81545,1.76699 -0.75747,0.71409 -1.66118,1.72836 -2.30034,1.63011 -0.63916,-0.0982 -1.19375,-0.64985 -0.73327,-1.57679 0.46049,-0.92693 0.63757,-1.80289 0.63757,-3.16943 0,-1.36654 -0.0393,-3.124 -0.07,-3.6345 -0.0307,-0.51051 -0.62935,-1.10988 -1.42665,-0.22561 -0.79731,0.88428 -3.34386,4.38658 -3.61626,4.82603 -0.2724,0.43948 -0.40594,1.00178 0.20617,1.44469 0.6121,0.44289 1.59173,1.13198 1.22039,2.05621 -0.16491,0.41043 -0.84732,2.20655 -1.83116,2.60432 -1.65429,0.66885 -5.20348,0.0171 -7.79458,-0.18443 -1.93686,-0.15062 -3.88098,-1.18462 -5.77775,-0.7646 -0.777,0.17205 -2.03545,0.47613 -2.01335,1.28314 0.0221,0.80702 3.17249,2.19725 5.01604,2.49401 2.2861,0.36799 4.59458,0.39767 6.88705,0.25045 z"
           id="use19473-7-9"
           inkscape:label="Top"
           style="display:inline;fill:#961919;fill-opacity:1;stroke-width:1"
           sodipodi:nodetypes="aasasssssssssssssssssssaassaa" />
      </g>
      <g
         id="layer138"
         inkscape:label="3">
        <path
           style="display:inline;fill:#000000;fill-opacity:1"
           d="m 266.2429,185.27767 c -1.24351,0.24872 -2.51703,0.39765 -3.71885,0.80239 -0.80501,0.27111 -1.74765,0.4373 -2.30862,1.07893 -0.56098,0.64163 -0.70577,1.55431 0.89415,1.98758 1.59992,0.43327 2.45677,0.51885 3.69971,0.47972 1.17305,-0.0369 2.31515,-0.39716 3.45627,-0.67149 4.47946,-1.07686 8.8638,-2.51724 13.28315,-3.81899 0.93796,-0.27629 1.8457,-0.67604 2.80842,-0.84712 1.8939,-0.33655 3.85503,-0.60043 5.76075,-0.33896 0.79844,0.10955 1.58621,0.38732 2.28614,0.78682 2.77788,1.58553 7.54743,4.13083 8.60586,4.73337 1.05844,0.60254 1.46484,1.06502 2.29005,0.36801 0.82521,-0.697 1.52511,-2.0191 1.61089,-2.85794 0.0858,-0.83885 0.53637,-2.26571 -0.18688,-2.76012 -0.72324,-0.49442 -8.65325,-4.08873 -9.82457,-4.6357 -1.17132,-0.54697 -2.90639,-0.78209 -5.00359,-0.21631 -2.09719,0.56578 -10.99467,3.87947 -14.36591,4.19765 -3.21682,0.3036 -6.20028,1.09478 -9.28697,1.71216 z"
           id="use75162"
           sodipodi:nodetypes="aassaaaaassssssssa"
           inkscape:label="Bottom" />
        <path
           style="display:inline;fill:#000000;fill-opacity:1"
           d="m 271.3424,176.33238 c -1.12866,-0.14518 -1.74877,-0.11519 -2.60579,0.21295 -0.78602,0.30092 -1.71617,0.80391 -2.33815,1.48377 -0.3236,0.35371 -0.76545,1.04869 -0.27956,1.41077 0.48593,0.36207 1.36666,0.89401 3.16831,0.89401 1.80165,0 3.12119,0.14995 4.67122,0.002 0.90956,-0.0868 1.81055,-0.27677 2.69136,-0.5197 4.46494,-1.23147 12.33867,-4.42122 13.06448,-4.73168 0.72582,-0.31046 1.12867,-0.64989 1.48215,-1.17092 0.47027,-0.69319 0.93423,-1.66757 0.71864,-2.40802 -0.21559,-0.74045 -0.78772,-1.37838 -2.14554,-0.74045 -1.35782,0.63792 -10.26896,4.18549 -11.76251,4.69043 -1.49355,0.50494 -2.37465,0.68775 -3.59738,0.82081 -1.5865,0.15596 -1.67431,0.25908 -3.06723,0.056 z"
           id="use75164"
           sodipodi:nodetypes="cssssaasasssccc"
           inkscape:label="Middle" />
        <path
           style="display:inline;fill:#000000;fill-opacity:1"
           d="m 272.08878,167.12938 c -0.98328,0.0824 -1.76334,0.0324 -2.90597,0.56394 -1.14263,0.53162 -2.74298,1.30721 -2.2376,2.03001 0.50539,0.72281 1.9841,1.59766 3.16959,1.98085 1.63451,0.52833 4.1937,0.58644 5.14188,0.34346 0.94818,-0.24298 12.84809,-4.06607 13.54968,-4.24447 0.70159,-0.1784 1.47259,-0.45926 2.12591,-0.85492 1.12109,-0.67894 2.45795,-1.35548 2.99025,-2.55317 0.31446,-0.70754 0.24374,-1.85678 -0.0642,-2.32193 -0.30789,-0.46515 -1.36705,-0.89896 -2.57193,-0.46515 -1.20487,0.43381 -9.99944,3.75958 -13.17158,5.08009 -0.65472,0.27255 -1.38147,0.48297 -2.38711,0.52995 -1.00564,0.047 -2.42983,-0.19005 -3.63892,-0.0887 z"
           id="use75166"
           sodipodi:nodetypes="assassaasssza"
           inkscape:label="Top" />
      </g>
    </g>
  </g>
</svg>
