<?xml version="1.0" encoding="UTF-8" standalone="no"?>
<!-- Created with Inkscape (http://www.inkscape.org/) -->

<svg
   width="20.860132mm"
   height="28mm"
   viewBox="0 0 20.860132 28"
   version="1.1"
   id="svg1"
   sodipodi:docname="Shaa.svg"
   inkscape:version="1.3.1 (91b66b0783, 2023-11-16)"
   xmlns:inkscape="http://www.inkscape.org/namespaces/inkscape"
   xmlns:sodipodi="http://sodipodi.sourceforge.net/DTD/sodipodi-0.dtd"
   xmlns="http://www.w3.org/2000/svg"
   xmlns:svg="http://www.w3.org/2000/svg">
  <sodipodi:namedview
     id="namedview1"
     pagecolor="#ffffff"
     bordercolor="#000000"
     borderopacity="0.25"
     inkscape:showpageshadow="2"
     inkscape:pageopacity="0.0"
     inkscape:pagecheckerboard="0"
     inkscape:deskcolor="#d1d1d1"
     inkscape:document-units="mm"
     inkscape:zoom="4.126431"
     inkscape:cx="38.289748"
     inkscape:cy="91.846926"
     inkscape:window-width="2560"
     inkscape:window-height="1362"
     inkscape:window-x="0"
     inkscape:window-y="0"
     inkscape:window-maximized="1"
     inkscape:current-layer="layer2" />
  <defs
     id="defs1" />
  <g
     inkscape:label="Border"
     inkscape:groupmode="layer"
     id="layer1"
     transform="translate(-1.0583318,-9.2604152)"
     sodipodi:insensitive="true">
    <g
       transform="matrix(0.26215626,0,0,0.24144272,80.829458,-90.453708)"
       id="layer1-26"
       inkscape:label="Layer 1">
      <rect
         style="fill:#ffffff;stroke:#000000;stroke-width:1.009;stroke-miterlimit:4;stroke-dasharray:none;stroke-dashoffset:0;stroke-opacity:1"
         id="rect6731-9-76"
         width="78.56237"
         height="114.96053"
         x="-303.78397"
         y="413.49738"
         ry="5.4056678" />
    </g>
  </g>
  <g
     inkscape:groupmode="layer"
     id="layer2"
     inkscape:label="Border 1">
    <g
       id="layer118"
       inkscape:label="West"
       style="display:inline"
       transform="matrix(0.26458333,0,0,0.26458333,-42.614154,-107.81579)">
      <g
         id="layer68"
         inkscape:label="Components"
         style="display:none">
        <path
           d="m 203.1392,488.89637 c 0.76978,-0.007 1.3786,0.24376 2.2028,0.69362 0.82421,0.44985 2.08695,1.02235 3.04389,-0.3363 0.95694,-1.35865 13.55736,-21.77245 14.46927,-23.41342 0.90345,-1.62574 1.83784,-2.27433 1.16789,-3.61036 -1.34092,-2.6741 -2.13528,-4.6158 -3.79812,-6.49226 -1.07631,-1.21458 -2.38833,-2.29773 -3.87608,-2.946 -2.19811,-0.9578 -4.75728,-1.34749 -7.08708,-1.23086 -2.32981,0.11663 -2.84055,0.19967 -3.60465,0.34111 -0.76409,0.14144 -0.98164,-0.0709 -0.85368,-0.92546 0.12797,-0.85458 0.12397,-0.78285 0.19645,-1.51038 0.0725,-0.72754 0.53895,-0.71416 1.53269,-0.58874 0.99374,0.12541 2.05811,0.48008 2.95708,-0.0757 0.89898,-0.55581 1.50842,-2.19429 1.03743,-2.84013 -0.47098,-0.64584 -1.77236,-1.38447 -2.23723,-1.6793 -0.46488,-0.29483 -0.58948,-0.57103 -0.55935,-0.90133 0.0301,-0.33031 0.0659,-0.70197 0.13461,-1.14295 0.0837,-0.53703 0.74519,-0.54912 1.55492,-0.50857 0.68042,0.0341 15.92486,1.24122 17.5825,1.28171 1.65765,0.0405 1.90002,-0.23277 2.06206,-1.0752 0.16204,-0.8424 0.0437,-1.48532 0.0234,-2.16453 -0.20289,-0.64266 -0.11929,-0.77764 -0.73732,-1.38624 -0.61804,-0.6086 -7.21807,-6.33535 -7.80046,-6.84667 -0.5824,-0.51133 -1.92366,-0.77534 -2.62786,-0.78077 -0.7042,-0.005 -5.02832,-0.1439 -7.52804,0.0772 -0.74387,0.0658 -1.47612,0.22962 -2.20947,0.3706 -11.58035,2.22627 -33.36931,7.22301 -34.5727,7.5017 -1.20338,0.2787 -2.41424,0.52034 -1.44208,1.45794 0.97215,0.93761 1.63535,1.31059 2.40868,2.04208 0.77333,0.73149 1.2739,0.92708 2.97214,0.4244 1.69823,-0.50268 10.10812,-2.86212 12.47062,-3.30991 2.36249,-0.4478 4.66941,-0.74545 7.02402,-0.92823 2.20072,-0.17083 4.48866,-0.12265 6.62017,-0.15593 0.89773,-0.014 2.58135,0.66025 2.2572,1.4697 -0.32416,0.80945 -1.14111,1.87134 -1.60486,2.41384 -0.46375,0.5425 -0.69518,0.5182 -1.46292,0.54704 -0.76774,0.0288 -1.98935,-0.19053 -2.0568,0.70415 -0.0674,0.89468 -0.15298,2.29462 -0.54432,3.35938 -1.02097,2.77785 -3.90245,6.97176 -4.59367,7.59788 -0.69121,0.62612 -1.61543,1.56718 -1.91534,0.32306 -0.2999,-1.24412 -0.76604,-6.1422 -1.1302,-7.33117 -0.36416,-1.18897 -0.7922,-1.72263 -1.55171,-1.59906 -0.75951,0.12356 -1.19632,0.67172 -1.23356,1.82265 -0.0372,1.15093 0.17619,8.10433 0.20744,8.86834 0.0312,0.764 -0.1717,1.11574 -1.4357,1.57046 -1.26399,0.45471 -3.8601,1.56527 -4.43518,1.81708 -0.57507,0.2518 -1.24706,0.35632 -1.93541,-0.61456 -0.68836,-0.97089 -2.15173,-2.67263 -3.34769,-3.65647 -0.61837,-0.5087 -1.42812,-0.75529 -2.24146,-0.86385 -0.70877,-0.0946 -1.32013,0.71406 -1.00977,1.89263 0.31036,1.17856 8.40849,25.39795 8.70467,26.07013 0.29619,0.67217 0.47678,1.20478 -0.28768,1.62834 -0.76445,0.42357 -0.93998,0.5977 -1.53359,0.92741 -0.59361,0.32971 -0.76189,0.88471 -0.14667,1.70228 0.61522,0.81757 0.86641,1.08035 1.19481,1.49249 0.32841,0.41213 0.86104,0.67055 1.98053,0.67702 5.86522,-0.039 11.63429,-0.10894 17.59536,-0.15991 z"
           id="path25761"
           sodipodi:nodetypes="sssssaassssssssssssscsscaasssssasssssassssssssssssssssscss"
           inkscape:label="Outline"
           style="display:inline" />
        <g
           inkscape:groupmode="layer"
           id="layer69"
           inkscape:label="Holes">
          <path
             d="m 189.51296,481.74876 c 0.53063,1.28151 0.76104,1.57449 1.11584,1.97123 0.40411,0.45188 0.936,0.15639 1.11046,-0.11833 0.16403,-0.2583 0.39552,-0.54111 0.43588,-1.20837 0.0396,-0.65522 -1.27287,-19.55068 -1.32832,-20.42365 -0.0555,-0.87296 -0.56823,-1.19993 -1.38324,-1.15777 -0.81501,0.0422 -3.91722,1.55058 -4.50963,1.89566 -0.59241,0.34509 -0.89724,0.5827 -0.39862,2.41319 1.61481,5.55376 4.12304,13.74529 4.95763,16.62805 z"
             id="path27055"
             sodipodi:nodetypes="csssssscsc"
             inkscape:label="Left" />
          <path
             d="m 195.05221,481.80885 c 0.10839,0.98445 0.47688,1.69048 1.01518,2.05918 0.46187,0.31635 0.81254,0.32625 1.17222,-0.44946 0.30112,-0.64942 0.35925,-1.14072 0.42162,-1.73144 0.38171,-3.61539 1.64794,-21.26823 1.77294,-22.45359 0.125,-1.18536 -0.20212,-1.40379 -1.20365,-1.15361 -1.00152,0.25018 -2.75869,0.91972 -3.44544,1.24522 -0.68675,0.32551 -0.72919,0.47463 -0.76044,2.18134 -0.0312,1.70671 0.90741,19.21096 1.02757,20.30236 z"
             id="path29643"
             sodipodi:nodetypes="sssssssss"
             inkscape:label="Middle" />
          <path
             d="m 200.93239,482.53179 c 0.0225,0.9369 0.10028,1.67573 0.64094,1.69782 0.54066,0.0221 0.9333,0.009 1.71341,-1.12291 0.7801,-1.13212 8.92258,-17.9098 9.31191,-18.80772 0.38933,-0.89792 0.64001,-1.58371 -0.12768,-2.62529 -0.76769,-1.04157 -2.62545,-3.31665 -3.28394,-4.04085 -0.65849,-0.72419 -0.98443,-0.61045 -1.67812,-0.60543 -0.71617,0.005 -2.02851,0.005 -3.03691,0.0324 -0.70696,0.0196 -1.36556,-0.055 -1.5019,1.59559 -0.13634,1.65059 -2.03771,23.87638 -2.03771,23.87638 z"
             id="path29645"
             inkscape:label="Right"
             sodipodi:nodetypes="cscssssssc" />
        </g>
      </g>
      <path
         id="path30942"
         style="display:inline"
         inkscape:label="Final"
         d="m 214.83203,430.71094 c -1.48152,-0.008 -3.18764,0.0125 -4.4375,0.12304 -0.74387,0.0658 -1.47563,0.23012 -2.20898,0.3711 -11.58034,2.22627 -33.37083,7.22326 -34.57422,7.50195 -1.20338,0.2787 -2.41357,0.52139 -1.44141,1.45899 0.97215,0.9376 1.63488,1.30952 2.4082,2.04101 0.77333,0.73149 1.27442,0.92651 2.97266,0.42383 1.69823,-0.50268 10.10821,-2.8608 12.4707,-3.30859 2.36249,-0.4478 4.66883,-0.74691 7.02344,-0.92969 2.20072,-0.17083 4.48959,-0.12102 6.6211,-0.1543 0.89772,-0.014 2.58196,0.6593 2.25781,1.46875 -0.32416,0.80945 -1.14172,1.87156 -1.60547,2.41406 -0.46375,0.5425 -0.69515,0.51804 -1.46289,0.54688 -0.76774,0.0288 -1.98919,-0.1896 -2.05664,0.70508 -0.0674,0.89468 -0.15358,2.29461 -0.54492,3.35937 -1.02097,2.77785 -3.90253,6.97154 -4.59375,7.59766 -0.69121,0.62612 -1.61611,1.56638 -1.91602,0.32226 -0.2999,-1.24412 -0.76475,-6.14111 -1.12891,-7.33007 -0.36416,-1.18897 -0.79322,-1.72318 -1.55273,-1.59961 -0.75951,0.12356 -1.19518,0.67133 -1.23242,1.82226 -0.0372,1.15093 0.17578,8.10513 0.20703,8.86914 0.0312,0.764 -0.17155,1.1156 -1.43555,1.57032 -1.26399,0.4547 -3.86046,1.56459 -4.43554,1.8164 -0.57507,0.2518 -1.2472,0.35565 -1.93555,-0.61523 -0.68836,-0.97089 -2.1517,-2.67241 -3.34766,-3.65625 -0.61837,-0.5087 -1.42885,-0.75472 -2.24219,-0.86328 -0.70876,-0.0946 -1.32012,0.714 -1.00976,1.89257 0.31036,1.17856 8.4089,25.39814 8.70508,26.07032 0.29619,0.67217 0.47735,1.20534 -0.28711,1.6289 -0.76445,0.42357 -0.9396,0.59607 -1.53321,0.92578 -0.5936,0.32971 -0.7617,0.88556 -0.14648,1.70313 0.61522,0.81757 0.86496,1.08005 1.19336,1.49219 0.32841,0.41213 0.86098,0.67126 1.98047,0.67773 5.86521,-0.039 11.63464,-0.10919 17.5957,-0.16016 0.76978,-0.007 1.37893,0.2435 2.20313,0.69336 0.82421,0.44985 2.08798,1.02271 3.04492,-0.33593 0.95694,-1.35865 13.55684,-21.7731 14.46875,-23.41407 0.90345,-1.62573 1.83792,-2.27334 1.16797,-3.60937 -1.34092,-2.6741 -2.13599,-4.61573 -3.79883,-6.49219 -1.07631,-1.21458 -2.38725,-2.299 -3.875,-2.94726 -2.19811,-0.9578 -4.75809,-1.3471 -7.08789,-1.23047 -2.32981,0.11663 -2.84137,0.20035 -3.60547,0.34179 -0.76409,0.14144 -0.98148,-0.0712 -0.85352,-0.92578 0.12797,-0.85458 0.12479,-0.78223 0.19727,-1.50976 0.0725,-0.72754 0.53946,-0.71527 1.5332,-0.58985 0.99374,0.12541 2.05807,0.47961 2.95703,-0.0762 0.89898,-0.55581 1.5081,-2.194 1.03711,-2.83984 -0.47098,-0.64584 -1.77341,-1.38486 -2.23828,-1.67969 -0.46488,-0.29483 -0.58872,-0.57009 -0.55859,-0.90039 0.0301,-0.33031 0.066,-0.7016 0.13476,-1.14258 0.0837,-0.53703 0.74496,-0.55031 1.55469,-0.50976 0.68042,0.0341 15.92439,1.24271 17.58203,1.2832 1.65765,0.0405 1.90046,-0.23374 2.0625,-1.07617 0.16204,-0.8424 0.0437,-1.48486 0.0234,-2.16407 -0.20289,-0.64265 -0.1183,-0.77811 -0.73633,-1.38671 -0.61804,-0.6086 -7.21839,-6.33439 -7.80078,-6.84571 -0.5824,-0.51133 -1.92471,-0.77582 -2.6289,-0.78125 -0.3521,-0.002 -1.60833,-0.0392 -3.08985,-0.0469 z m -6.86133,26.30664 c 0.41519,-1.6e-4 0.72293,0.0721 1.2168,0.61523 0.65849,0.7242 2.51551,2.99945 3.2832,4.04102 0.76769,1.04158 0.51824,1.72708 0.12891,2.625 -0.38933,0.89792 -8.5324,17.67647 -9.3125,18.80859 -0.78011,1.13191 -1.17223,1.14515 -1.71289,1.12305 -0.54066,-0.0221 -0.62008,-0.76232 -0.64258,-1.69922 0,0 1.90272,-22.22441 2.03906,-23.875 0.13634,-1.65059 0.795,-1.5761 1.50196,-1.5957 1.0084,-0.0274 2.32094,-0.0282 3.03711,-0.0332 0.17342,-0.001 0.32254,-0.01 0.46093,-0.01 z m -9.11132,0.9707 c 0.50865,0.0115 0.66796,0.35708 0.57421,1.2461 -0.125,1.18534 -1.38977,18.83773 -1.77148,22.45312 -0.0624,0.59072 -0.12076,1.08105 -0.42188,1.73047 -0.35968,0.77571 -0.71,0.76557 -1.17187,0.44922 -0.5383,-0.3687 -0.90724,-1.07415 -1.01563,-2.0586 -0.12016,-1.0914 -1.05854,-18.59602 -1.02734,-20.30273 0.0312,-1.70671 0.073,-1.85613 0.75977,-2.18164 0.68675,-0.3255 2.44379,-0.99396 3.44531,-1.24414 0.25038,-0.0625 0.45935,-0.0956 0.62891,-0.0918 z m -9.39649,2.82422 c 0.81501,-0.0422 1.32927,0.28329 1.38477,1.15625 0.0555,0.87297 1.36772,19.76861 1.32812,20.42383 -0.0404,0.66726 -0.27152,0.95068 -0.43555,1.20898 -0.17446,0.27472 -0.70721,0.57102 -1.11132,0.11914 -0.3548,-0.39674 -0.58461,-0.69114 -1.11524,-1.97265 -0.83459,-2.88276 -3.34417,-11.0732 -4.95898,-16.62696 -0.49862,-1.83047 -0.19396,-2.06897 0.39843,-2.41406 0.59241,-0.34508 3.69476,-1.85233 4.50977,-1.89453 z" />
    </g>
  </g>
</svg>
