<?xml version="1.0" encoding="UTF-8" standalone="no"?>
<!-- Created with Inkscape (http://www.inkscape.org/) -->

<svg
   width="65.449997mm"
   height="7.3000002mm"
   viewBox="0 0 65.449997 7.3000002"
   version="1.1"
   id="svg1"
   xmlns="http://www.w3.org/2000/svg"
   xmlns:svg="http://www.w3.org/2000/svg"
   xmlns:rdf="http://www.w3.org/1999/02/22-rdf-syntax-ns#"
   xmlns:cc="http://creativecommons.org/ns#"
   xmlns:dc="http://purl.org/dc/elements/1.1/">
  <defs
     id="defs1" />
  <g
     id="g33"
     transform="translate(-74.496309)">
    <rect
       style="display:inline;fill:#ffffff;fill-opacity:1;stroke:none;stroke-width:0.708791;stroke-linecap:square;stroke-linejoin:miter;stroke-miterlimit:1;stroke-dasharray:none;stroke-opacity:1"
       id="rect7"
       width="64.741203"
       height="6.5912089"
       x="74.989426"
       y="0.35439554"
       rx="1"
       ry="1" />
    <rect
       style="display:inline;fill:none;stroke:#000000;stroke-width:0.708791;stroke-linecap:square;stroke-linejoin:miter;stroke-miterlimit:1;stroke-dasharray:none;stroke-opacity:1"
       id="rect10"
       width="64.741203"
       height="6.5912089"
       x="74.989426"
       y="0.35439551"
       rx="1"
       ry="1" />
    <g
       id="g32"
       transform="translate(73.384933,1.249968)">
      <circle
         style="fill:#000000;fill-opacity:1;stroke-width:0.132291"
         id="circle28"
         cx="38.974953"
         cy="2.400032"
         r="0.75" />
      <circle
         style="fill:#000000;fill-opacity:1;stroke-width:0.132291"
         id="circle29"
         cx="19.274998"
         cy="-13.263936"
         r="0.75"
         transform="translate(17.199769,15.663968)" />
      <circle
         style="fill:#000000;fill-opacity:1;stroke-width:0.132291"
         id="circle30"
         cx="16.774998"
         cy="-13.263936"
         r="0.75"
         transform="translate(17.199769,15.663968)" />
      <circle
         style="fill:#000000;fill-opacity:1;stroke-width:0.132291"
         id="circle31"
         cx="14.274998"
         cy="-13.263936"
         r="0.75"
         transform="translate(17.199769,15.663968)" />
      <circle
         style="fill:#000000;fill-opacity:1;stroke-width:0.132291"
         id="circle32"
         cx="11.775462"
         cy="-13.263936"
         r="0.75"
         transform="translate(17.199769,15.663968)" />
    </g>
  </g>
  <metadata
     id="metadata1">
    <rdf:RDF>
      <cc:Work
         rdf:about="">
        <cc:license
           rdf:resource="http://creativecommons.org/licenses/by/4.0/" />
        <dc:description>Each stick is according to a 1:1 scale.</dc:description>
      </cc:Work>
      <cc:License
         rdf:about="http://creativecommons.org/licenses/by/4.0/">
        <cc:permits
           rdf:resource="http://creativecommons.org/ns#Reproduction" />
        <cc:permits
           rdf:resource="http://creativecommons.org/ns#Distribution" />
        <cc:requires
           rdf:resource="http://creativecommons.org/ns#Notice" />
        <cc:requires
           rdf:resource="http://creativecommons.org/ns#Attribution" />
        <cc:permits
           rdf:resource="http://creativecommons.org/ns#DerivativeWorks" />
      </cc:License>
    </rdf:RDF>
  </metadata>
</svg>
