<?xml version="1.0" encoding="UTF-8" standalone="no"?>
<!-- Created with Inkscape (http://www.inkscape.org/) -->

<svg
   width="20.860132mm"
   height="28mm"
   viewBox="0 0 20.860132 28"
   version="1.1"
   id="svg1"
   sodipodi:docname="Chun.svg"
   inkscape:version="1.3.1 (91b66b0783, 2023-11-16)"
   xmlns:inkscape="http://www.inkscape.org/namespaces/inkscape"
   xmlns:sodipodi="http://sodipodi.sourceforge.net/DTD/sodipodi-0.dtd"
   xmlns="http://www.w3.org/2000/svg"
   xmlns:svg="http://www.w3.org/2000/svg">
  <sodipodi:namedview
     id="namedview1"
     pagecolor="#ffffff"
     bordercolor="#000000"
     borderopacity="0.25"
     inkscape:showpageshadow="2"
     inkscape:pageopacity="0.0"
     inkscape:pagecheckerboard="0"
     inkscape:deskcolor="#d1d1d1"
     inkscape:document-units="mm"
     inkscape:zoom="4.126431"
     inkscape:cx="38.168577"
     inkscape:cy="91.846925"
     inkscape:window-width="2560"
     inkscape:window-height="1362"
     inkscape:window-x="0"
     inkscape:window-y="0"
     inkscape:window-maximized="1"
     inkscape:current-layer="layer2" />
  <defs
     id="defs1" />
  <g
     inkscape:label="Border"
     inkscape:groupmode="layer"
     id="layer1"
     transform="translate(-1.0583318,-9.2604152)"
     sodipodi:insensitive="true"
     style="display:none">
    <g
       transform="matrix(0.26215626,0,0,0.24144272,80.829458,-90.453708)"
       id="layer1-26"
       inkscape:label="Layer 1">
      <rect
         style="fill:#ffffff;stroke:#000000;stroke-width:1.009;stroke-miterlimit:4;stroke-dasharray:none;stroke-dashoffset:0;stroke-opacity:1"
         id="rect6731-9-76"
         width="78.56237"
         height="114.96053"
         x="-303.78397"
         y="413.49738"
         ry="5.4056678" />
    </g>
  </g>
  <g
     inkscape:groupmode="layer"
     id="layer2"
     inkscape:label="Border 1">
    <g
       id="layer14"
       inkscape:label="Red (Chun)"
       style="display:inline"
       transform="matrix(0.26458333,0,0,0.26458333,-127.56798,-107.52734)">
      <path
         id="use20682"
         style="display:inline;fill:#961919;fill-opacity:1"
         inkscape:label="Final"
         d="m 518.57227,415.36328 c -0.77405,0.0138 -1.5522,0.38763 -2.25196,1.41211 -1.86601,2.73194 -2.59619,3.78736 -2.92969,4.37891 -0.3335,0.59154 -0.61042,0.67227 -0.58984,1.85351 0.0206,1.18125 0.0691,2.26692 0.0723,3.00586 0.003,0.73895 0.49333,1.02762 1.02929,1.3711 0.53596,0.34348 1.25892,0.61397 1.64649,0.87695 0.38758,0.26297 0.3651,0.6957 0.34765,1.60156 -0.0175,0.90585 0.47584,10.3803 0.43164,10.99219 -0.0442,0.61189 0.0244,0.61316 -0.83593,0.96094 -0.86028,0.34777 -9.72165,4.01395 -10.31446,4.32226 -0.59282,0.30831 -0.91271,0.0409 -1.66015,-0.57031 -0.74744,-0.61122 -5.98676,-4.77388 -6.62696,-5.29102 -0.6402,-0.51713 -2.17667,-0.92925 -2.17382,0.5 0.003,1.42925 0.01,6.83344 0.0195,7.33204 0.0102,0.49859 -0.11886,1.25718 0.8457,2.13867 0.96455,0.88148 9.84054,9.62702 10.48047,10.35351 0.50896,0.5778 0.39275,1.30133 0.27344,2.01953 -0.14985,0.90206 -0.12026,1.68588 0.72851,1.61524 0.84872,-0.0706 7.94251,-0.82576 8.54493,-0.88281 0.60241,-0.0571 1.30286,0.0414 1.29101,1.37695 -0.0119,1.33557 0.0749,30.49156 0.11328,31.43555 0.0385,0.94397 0.45704,2.02588 0.73047,2.73632 0.27344,0.71044 0.24064,2.12814 0.15039,2.85938 -0.0902,0.73124 0.20084,2.50028 1.24805,0.77539 1.04721,-1.72489 3.12729,-5.64758 3.48633,-6.62305 0.35904,-0.97548 0.47265,-1.87037 0.53515,-3.0957 0.0625,-1.22534 -0.43283,-28.26216 -0.45117,-28.79883 -0.0184,-0.53666 0.26384,-1.3125 1.44727,-1.21875 3.0182,0.16 6.03813,0.25592 9.05859,0.35938 0.96725,0 0.94587,-0.2749 1.06641,-0.93164 0.12055,-0.65675 0.92581,-3.5306 2.30468,-5.4629 1.37888,-1.93228 4.2959,-5.77983 5.15235,-6.60937 0.85646,-0.82955 0.95022,-0.81209 2.20898,-0.875 1.25875,-0.0629 3.23522,-0.20993 3.76563,-0.94922 0.5304,-0.73928 1.08467,-1.74495 0.33984,-2.86133 -0.74483,-1.11637 -6.63381,-8.47881 -7.53906,-9.35547 -0.90526,-0.87666 -2.17639,-1.81651 -3.77735,-1.12109 -1.60095,0.69542 -10.72266,3.74681 -11.73437,4.03516 -1.0117,0.28836 -1.0251,-0.42725 -1.01367,-1.14844 0.0114,-0.72119 -0.0249,-2.21514 0.01,-2.83008 0.0348,-0.61494 0.59522,-1.11202 1,-1.7539 0.40478,-0.64188 2.51696,-4.06437 3.01563,-4.94922 0.49867,-0.88486 0.58844,-1.98058 -0.006,-3.21289 -0.59434,-1.23232 -4.60193,-7.1514 -6,-8.17579 -0.87379,-0.64023 -2.14938,-1.61869 -3.43945,-1.5957 z m 15.23242,26.10742 c 0.95075,0.005 1.3065,0.61993 1.71289,1.28516 0.50017,0.81874 0.68205,2.12576 0.14648,2.95312 -2.53186,3.91141 -7.13581,10.70137 -7.69336,11.52149 -0.55754,0.82007 -0.93208,0.69011 -1.47851,0.72461 -0.85221,-0.003 -1.70483,-0.001 -2.55664,-0.0312 -0.62448,-0.0307 -0.78374,-0.45148 -0.74024,-0.99219 0.0435,-0.54072 0.60982,-10.30402 0.66602,-11.3125 0.0562,-1.00847 0.18288,-1.27584 0.84179,-1.51172 0.65894,-0.23589 6.7899,-2.1567 8.33985,-2.53515 0.29061,-0.071 0.54231,-0.10264 0.76172,-0.10157 z m -17.67578,5.7168 c 0.63097,-0.0276 0.67773,0.62169 0.67773,1.15039 0,0.65071 -0.0327,7.45994 -0.0176,8.44727 0.0151,0.98733 -0.58604,1.00333 -1.20508,1.13672 -0.8375,0.13803 -1.67592,0.27198 -2.50976,0.43164 -0.638,0.12878 -0.77155,-0.16988 -0.9375,-0.54297 -0.16594,-0.37308 -3.13808,-5.85175 -3.58594,-6.54883 -0.44787,-0.69708 -0.2781,-0.88504 0.20703,-1.20313 0.48513,-0.31809 5.68943,-2.26339 6.83399,-2.73437 0.21459,-0.0883 0.3915,-0.13034 0.53711,-0.13672 z" />
    </g>
  </g>
</svg>
