<?xml version="1.0" encoding="UTF-8" standalone="no"?>
<!-- Created with Inkscape (http://www.inkscape.org/) -->

<svg
   width="20.860132mm"
   height="28mm"
   viewBox="0 0 20.860132 28"
   version="1.1"
   id="svg1"
   sodipodi:docname="Man6.svg"
   inkscape:version="1.3.1 (91b66b0783, 2023-11-16)"
   xmlns:inkscape="http://www.inkscape.org/namespaces/inkscape"
   xmlns:sodipodi="http://sodipodi.sourceforge.net/DTD/sodipodi-0.dtd"
   xmlns="http://www.w3.org/2000/svg"
   xmlns:svg="http://www.w3.org/2000/svg">
  <sodipodi:namedview
     id="namedview1"
     pagecolor="#ffffff"
     bordercolor="#000000"
     borderopacity="0.25"
     inkscape:showpageshadow="2"
     inkscape:pageopacity="0.0"
     inkscape:pagecheckerboard="0"
     inkscape:deskcolor="#d1d1d1"
     inkscape:document-units="mm"
     inkscape:zoom="4.126431"
     inkscape:cx="38.168577"
     inkscape:cy="91.846925"
     inkscape:window-width="2560"
     inkscape:window-height="1362"
     inkscape:window-x="0"
     inkscape:window-y="0"
     inkscape:window-maximized="1"
     inkscape:current-layer="layer2" />
  <defs
     id="defs1" />
  <g
     inkscape:label="Border"
     inkscape:groupmode="layer"
     id="layer1"
     transform="translate(-1.0583318,-9.2604152)"
     sodipodi:insensitive="true"
     style="display:none">
    <g
       transform="matrix(0.26215626,0,0,0.24144272,80.829458,-90.453708)"
       id="layer1-26"
       inkscape:label="Layer 1">
      <rect
         style="fill:#ffffff;stroke:#000000;stroke-width:1.009;stroke-miterlimit:4;stroke-dasharray:none;stroke-dashoffset:0;stroke-opacity:1"
         id="rect6731-9-76"
         width="78.56237"
         height="114.96053"
         x="-303.78397"
         y="413.49738"
         ry="5.4056678" />
    </g>
  </g>
  <g
     inkscape:groupmode="layer"
     id="layer2"
     inkscape:label="Border 1">
    <g
       id="layer22"
       inkscape:label="6"
       style="display:inline"
       transform="matrix(0.26458333,0,0,0.26458333,-127.57576,-39.23561)">
      <g
         id="layer124-3-8"
         inkscape:label="Man Character"
         style="display:inline"
         transform="translate(682.93438)">
        <path
           id="use19471-6-7"
           style="display:inline;fill:#961919;fill-opacity:1;stroke-width:1"
           inkscape:label="Bottom"
           d="m -154.06648,210.30274 c -0.21387,-6.5e-4 -0.46362,0.0221 -0.75586,0.0722 -1.16896,0.20078 -10.2026,2.58317 -12.38281,3.34376 -2.1802,0.76058 -3.50428,1.68631 -5.25195,1.53515 -0.66422,-0.0575 -1.50308,-0.13902 -1.79492,0.004 -0.76159,0.37299 -0.70929,1.56114 -0.59766,2.47264 0.11163,0.91151 0.74237,11.97228 0.92969,12.54297 0.18732,0.57068 1.29569,1.73478 1.59374,1.77345 0.29807,0.0387 0.97146,-0.85307 1.04493,-1.49024 0.0734,-0.63715 -0.14632,-1.61002 -0.0391,-1.99804 0.10726,-0.38805 0.54634,-0.56112 0.9082,-0.61524 0.3777,-0.0565 0.76624,-0.0553 1.14845,-0.0859 0.42067,-0.0338 0.91092,-0.20096 0.99218,0.94727 0.0813,1.14822 0.23386,2.07183 0.0196,2.53515 -0.21432,0.46333 -0.23735,0.70358 -1.0996,0.98242 -0.86225,0.27886 -3.82367,1.26393 -4.31055,1.37891 -0.48688,0.11497 -0.92954,0.60869 -1.14844,-0.46874 -0.2189,-1.07745 -1.74362,-6.98844 -1.94531,-7.69532 -0.2017,-0.70686 -0.72663,-1.62201 -1.4336,-1.63868 -0.70696,-0.0167 -1.23137,-0.15834 -1.66015,-0.006 -0.42878,0.15276 -0.15248,0.51351 -0.0293,1.39844 0.12317,0.88493 1.39967,6.97849 1.56249,7.61719 0.16282,0.63871 0.39043,1.10321 -0.65624,1.04687 -1.04669,-0.0563 -3.25469,-0.39148 -4.3379,-0.74609 -1.08321,-0.35461 -1.80725,-0.47203 -2.22656,-0.25586 -0.41931,0.21616 -0.88468,1.29068 -0.33594,1.93555 0.54874,0.64488 1.36666,2.06071 2.07227,2.38867 0.70561,0.32796 1.99827,0.34015 2.81641,0.22656 0.81813,-0.11359 1.93006,-0.44781 2.91406,-0.48047 0.6139,-0.0204 1.00369,0.0859 1.16015,1.0586 0.15646,0.97275 0.57717,3.7689 1.42188,4.83398 0.84471,1.06509 2.0274,2.25898 2.23047,2.28516 0.20307,0.0262 0.69789,-0.9569 0.8164,-1.38477 0.11852,-0.42786 0.14225,-0.9965 0.0488,-1.6582 -0.14246,-1.00906 0.151,-1.54107 0.92774,-1.00977 0.59893,0.40968 1.523,0.92791 2.35742,1.02149 0.83443,0.0936 1.85061,-0.11607 2.39063,-0.53906 0.54001,-0.423 1.15198,-1.28097 1.63671,-1.35157 0.48473,-0.0706 1.55405,0.7402 2.33008,1.17774 0.77603,0.43754 9.44614,4.04004 9.99805,4.27539 0.5519,0.23535 1.40619,0.35928 2.05664,0.11719 3.60882,-1.52499 6.8673,-2.58021 10.64648,-4.30665 1.16852,-0.41069 2.07529,-1.44903 1.79102,-2.6621 -0.29204,-1.24623 -0.46594,-2.40904 -0.6582,-3.4629 -0.11399,-0.62477 -0.10142,-0.91617 -1.14649,-1.52148 -1.04507,-0.6053 -3.8417,-2.43896 -6,-3.05273 -2.66878,-0.75895 -8.08917,-1.61089 -8.53125,-1.79688 -0.44208,-0.18599 -0.32617,-0.32472 -0.32617,-0.84961 0,-0.52489 0.17232,-5.58058 0.74023,-8.63672 0.56792,-3.05612 1.34401,-3.21538 1.32422,-5.28906 -0.0111,-1.16266 0.32377,-2.94542 0,-3.40625 -0.24282,-0.34563 -0.56931,-0.56055 -1.21093,-0.5625 z m -5.75781,4.94336 c 0.43783,0.007 0.2005,0.65584 0.0469,1.46093 -0.15362,0.80511 -0.49014,1.26757 -1.02344,1.61718 -0.76153,0.49924 -2.18778,0.52779 -3.24414,0.60939 -0.35899,0.0277 -0.67573,0.004 -1.0332,-0.31642 -0.21871,-0.19221 -0.0805,-0.76032 0.0273,-1.32422 0.1078,-0.5639 0.78626,-0.90944 1.32617,-1.11327 1.25663,-0.47441 3.46256,-0.9406 3.90039,-0.93359 z m -10.78711,2.69335 c 0.22929,3.6e-4 0.49598,0.014 0.82422,0.004 0.87529,-0.0269 0.88614,0.36293 0.99218,0.9629 0.10606,0.59997 0.0152,1.16921 -0.29101,1.62696 -0.28745,0.42974 -1.56529,0.48623 -2.15625,0.45703 -0.47282,-0.0234 -0.55117,-0.76137 -0.58008,-1.15039 0,0 -0.0422,-0.49734 0.002,-0.90625 0.0442,-0.40892 0.0623,-0.56017 0.25977,-0.72266 0.28857,-0.2374 0.56708,-0.2721 0.94922,-0.27149 z m 9.95508,3.14258 c 0.34767,0.009 0.43902,0.18584 0.47461,0.5332 0.0438,0.42753 -0.0223,0.99071 -0.0703,1.60742 -0.0481,0.61672 -1.07167,0.79626 -1.5586,0.81836 0,0 -1.87585,0.10743 -2.41406,0.10743 -0.53821,0 -0.75781,-0.16965 -1.06836,-0.41212 -0.31055,-0.24245 0.0138,-0.75811 0.19726,-1.09179 0.18346,-0.33368 0.40208,-0.51057 0.68946,-0.66211 0.28738,-0.15154 2.87989,-0.79621 3.4668,-0.87891 0.11004,-0.0155 0.20296,-0.0236 0.2832,-0.0214 z m -8.89258,2.08985 c 0.1642,0.002 0.33718,0.0248 0.52539,0.0742 0.75287,0.19787 0.61328,0.57329 0.61328,1.20507 0,0.63179 -0.18274,0.88357 -0.50781,1.14649 -0.43891,0.35542 -1.10603,0.46494 -1.6582,0.34766 -0.39648,-0.0842 -0.68612,-0.25909 -0.98633,-0.7129 -0.30021,-0.4538 0.0641,-1.17158 0.64648,-1.56055 0.46686,-0.31157 0.87461,-0.50581 1.36719,-0.49999 z m 8.88868,3.77148 c 0.4563,0.004 0.83397,0.35452 0.83397,0.86915 0,0.5489 -0.004,1.53983 -0.004,2.20507 0,0.66523 -0.21594,0.89781 -0.94336,0.91211 -0.72743,0.0143 -2.64983,0.57729 -3.38867,0.92968 -0.50788,0.19568 -0.7599,-0.14034 -0.79492,-0.49805 -0.0351,-0.35771 0.0581,-1.98661 0.0937,-2.79686 0.0356,-0.81025 0.85077,-0.95753 1.43556,-1.11719 0.88008,-0.24031 1.77208,-0.4166 2.67577,-0.5 0.0311,-0.003 0.0614,-0.004 0.0918,-0.004 z m 8.10741,5.60157 c 0.36684,0.002 0.825,0.073 1.3418,0.14842 1.37815,0.201 3.95652,1.68654 5.14062,2.5586 1.18411,0.87205 0.0441,1.95333 -0.76171,2.55859 -0.80581,0.60526 -7.98257,3.6457 -8.58594,3.96094 v 0.002 c -1.30847,0.7425 -2.47348,0.16572 -3.01953,-0.0566 -0.54605,-0.22237 -2.41896,-1.27153 -3.12109,-1.72265 -0.70214,-0.45111 -0.52835,-0.80677 -0.25195,-1.16211 0.27639,-0.35533 1.2558,-0.97755 1.60351,-1.18164 0.37861,-0.22269 0.89398,-0.49834 1.08789,-0.22071 0.19391,0.27762 0.003,1.22664 0.12499,1.74805 0.12146,0.52138 0.93017,0.69923 1.59376,0.48047 0.66359,-0.21877 2.89321,-1.16328 3.69141,-1.48828 0.79818,-0.325 0.62141,-0.81388 0.59765,-1.37305 -0.0238,-0.55916 -0.24209,-2.32527 -0.34375,-3.39844 -0.0635,-0.67073 0.29095,-0.85756 0.90234,-0.85351 z m -8.18359,1.28125 c 0.63983,0 0.80629,0.0469 0.92383,0.34569 0.11753,0.29887 0.0818,0.77274 0.0664,1.12305 -0.0153,0.35033 -0.1364,0.45018 -0.35742,0.55469 -0.60173,0.28453 -1.17435,0.56231 -1.80469,0.85546 -0.55344,0.25739 -1.21943,0.28033 -1.83985,0.28125 -0.31769,4.7e-4 -0.63849,-0.0303 -0.9414,-0.14061 -0.32229,-0.11657 -0.23123,-1.18524 -0.0859,-1.58203 0.14529,-0.39678 0.31389,-0.62908 1.01953,-0.83008 0.94992,-0.27058 2.3797,-0.60742 3.01953,-0.60742 z m -8.20117,2.26561 c 0.4178,0.006 0.47043,0.32459 0.51172,0.56641 0.0508,0.29763 0.0648,0.71943 -0.043,1.49805 -0.10775,0.77859 -0.42834,0.98159 -0.8711,1.20117 -0.39988,0.19832 -0.67581,0.35721 -1.3164,0.61328 -0.55014,0.21994 -1.04503,0.24133 -1.45118,-0.0508 -0.41778,-0.30048 -0.69207,-0.70948 -1.01758,-1.31641 -0.32735,-0.6104 0.63905,-1.27823 1.03516,-1.49219 0.39612,-0.21397 2.05458,-0.77234 2.79883,-0.96875 0.13955,-0.0368 0.2571,-0.0522 0.35352,-0.0508 z" />
        <path
           d="m -174.18617,212.88769 c 1.34719,-0.0865 2.68668,-0.33159 3.99516,-0.66368 5.20169,-1.32015 9.99911,-4.00476 15.2181,-5.25476 2.67214,-0.64001 3.60577,-0.60888 5.41204,-0.47775 1.95004,0.14157 4.58319,2.45551 5.707,1.35428 1.12383,-1.10124 5.51875,-4.11273 2.09548,-4.33496 -3.42327,-0.22223 -10.47329,-0.29438 -12.18856,0.30978 -1.71526,0.60415 -2.98106,0.99027 -3.9516,0.99927 -0.9385,0.009 -0.96823,-0.67731 -0.21516,-1.67106 0.75307,-0.99375 3.12415,-3.34819 2.4675,-6.42609 -0.65665,-3.07792 -1.27833,-5.22474 -2.28441,-4.73307 -1.00608,0.49166 -3.67875,2.25211 -3.98207,2.95754 -0.30332,0.70545 0.10744,8.5676 0.1381,9.13991 0.0306,0.57232 -0.058,1.05289 -0.81545,1.76699 -0.75747,0.71409 -1.66118,1.72836 -2.30034,1.63011 -0.63916,-0.0982 -1.19375,-0.64985 -0.73327,-1.57679 0.46049,-0.92693 0.63757,-1.80289 0.63757,-3.16943 0,-1.36654 -0.0393,-3.124 -0.07,-3.6345 -0.0307,-0.51051 -0.62935,-1.10988 -1.42665,-0.22561 -0.79731,0.88428 -3.34386,4.38658 -3.61626,4.82603 -0.2724,0.43948 -0.40594,1.00178 0.20617,1.44469 0.6121,0.44289 1.59173,1.13198 1.22039,2.05621 -0.16491,0.41043 -0.84732,2.20655 -1.83116,2.60432 -1.65429,0.66885 -5.20348,0.0171 -7.79458,-0.18443 -1.93686,-0.15062 -3.88098,-1.18462 -5.77775,-0.7646 -0.777,0.17205 -2.03545,0.47613 -2.01335,1.28314 0.0221,0.80702 3.17249,2.19725 5.01604,2.49401 2.2861,0.36799 4.59458,0.39767 6.88705,0.25045 z"
           id="use19473-7-92"
           inkscape:label="Top"
           style="display:inline;fill:#961919;fill-opacity:1;stroke-width:1"
           sodipodi:nodetypes="aasasssssssssssssssssssaassaa" />
      </g>
      <g
         id="layer136"
         inkscape:label="6">
        <path
           style="display:inline;fill:#000000;fill-opacity:1"
           d="m 509.1699,189.21806 c 1.62077,-0.78212 3.38373,-1.39824 4.73577,-1.31245 1.35205,0.0858 2.09679,0.5454 3.05046,-0.90197 0.95367,-1.44738 1.21762,-1.53131 1.74748,-2.31534 0.52985,-0.78403 0.62116,-0.97482 -0.16868,-2.28812 -0.78985,-1.31331 -1.78384,-2.76324 -2.92377,-2.69169 -1.09354,0.0686 -1.61744,-0.0712 -2.96325,-0.71874 -1.09032,-0.52457 -1.56546,-0.90642 -2.56199,0.0728 -0.99653,0.97924 -2.15635,2.34019 -2.6794,3.03789 -0.52306,0.6977 1.46387,1.81071 1.57704,1.95802 0.11317,0.14731 0.10381,1.61363 -0.53813,1.89428 -1.70451,0.74518 -5.41405,3.05273 -6.91477,3.70794 -1.50073,0.65521 -1.86691,0.37021 -3.88564,0.65521 -2.01873,0.28501 -2.48124,0.18773 -3.41106,0.5733 -0.92983,0.38557 -0.75651,1.02313 0.17958,1.52196 0.93608,0.49883 3.76736,0.77562 5.65288,0.44077 1.88553,-0.33484 2.51775,-0.42052 4.43923,-1.38294 1.92147,-0.96243 4.66425,-2.25094 4.66425,-2.25094 z"
           id="use75181"
           inkscape:label="Bottom Left Stroke"
           sodipodi:nodetypes="csssssssszssssssscc" />
        <path
           style="display:inline;fill:#000000;fill-opacity:1"
           d="m 531.88614,193.51549 c 0.62388,0.50084 1.19754,0.88325 1.91211,0.40973 0.66883,-0.44322 1.11439,-0.92901 1.32012,-1.85206 0.36397,-1.63298 0.35651,-2.93938 -0.39157,-3.93854 -0.74807,-0.99915 -3.54268,-3.73052 -5.60237,-5.24933 -0.73265,-0.54025 -1.55009,-0.96231 -2.37279,-1.35194 -1.57818,-0.74741 -4.00775,-1.48177 -4.89033,-1.87829 -0.83598,-0.37558 -2.38306,0.12301 -1.69441,0.95288 0.25501,0.30729 2.55297,3.80447 5.35549,6.90352 2.80252,3.09906 6.1096,5.8 6.36375,6.00403 z"
           id="use75183"
           sodipodi:nodetypes="ssssaassss"
           inkscape:label="Bottom Right Stroke" />
        <path
           style="display:inline;fill:#000000;fill-opacity:1"
           d="m 523.96165,173.43416 c 1.69535,-0.49767 3.52865,-1.03364 4.4838,-0.58953 1.02801,0.47799 8.83226,4.05716 10.07204,4.59234 1.23977,0.53519 3.59369,0.94179 4.2362,-0.17814 0.64252,-1.11994 1.27561,-3.0763 0.99039,-4.38356 -0.28522,-1.30725 -0.61322,-1.09896 -2.03229,-1.94571 -1.41906,-0.84674 -6.97693,-3.19733 -8.4739,-3.88879 -1.49698,-0.69145 -2.53067,-0.21713 -4.05726,0.21968 -1.52658,0.43681 -9.19517,3.27218 -10.65571,4.01929 -3.00824,1.5388 -2.24467,-1.00499 -1.61053,-1.63004 1.1109,-1.09499 2.00593,-2.38667 2.29569,-3.85348 0.26528,-1.34286 -0.0464,-2.81118 -0.60234,-4.06203 -0.6458,-1.45316 -1.77879,-3.40577 -3.03364,-3.68178 -1.25485,-0.27602 -3.41637,-0.34832 -3.88636,0.86903 -0.54555,1.41304 -0.61374,1.72759 -1.61795,2.34509 -1.21851,0.74929 -1.29304,1.37305 -0.55548,2.43042 0.86452,1.23937 0.32351,1.79279 0.32351,2.79611 0,1.00332 0.4073,1.92301 1.26701,2.49095 0.85971,0.56794 1.54397,1.04839 1.81168,2.02388 0.26981,1.12473 0.36205,1.93848 -1.11341,2.39693 -1.47546,0.45845 -4.51974,1.06963 -7.12262,0.82983 -2.60287,-0.2398 -3.94784,0.54668 -5.0177,1.23432 -1.06985,0.68764 -1.54245,1.5375 0.27881,2.16541 1.82126,0.6279 4.14432,1.89595 7.25317,0.75046 5.57095,-1.89128 11.13688,-3.24484 16.76689,-4.95068 z"
           id="use75179"
           inkscape:label="Top Outline"
           sodipodi:nodetypes="csssssssssaasssssscsssscc" />
      </g>
    </g>
  </g>
</svg>
