<?xml version="1.0" encoding="UTF-8" standalone="no"?>
<!-- Created with Inkscape (http://www.inkscape.org/) -->

<svg
   width="20.860132mm"
   height="28mm"
   viewBox="0 0 20.860132 28"
   version="1.1"
   id="svg1"
   sodipodi:docname="Pin8.svg"
   inkscape:version="1.3.1 (91b66b0783, 2023-11-16)"
   xmlns:inkscape="http://www.inkscape.org/namespaces/inkscape"
   xmlns:sodipodi="http://sodipodi.sourceforge.net/DTD/sodipodi-0.dtd"
   xmlns="http://www.w3.org/2000/svg"
   xmlns:svg="http://www.w3.org/2000/svg">
  <sodipodi:namedview
     id="namedview1"
     pagecolor="#ffffff"
     bordercolor="#000000"
     borderopacity="0.25"
     inkscape:showpageshadow="2"
     inkscape:pageopacity="0.0"
     inkscape:pagecheckerboard="0"
     inkscape:deskcolor="#d1d1d1"
     inkscape:document-units="mm"
     inkscape:zoom="4.126431"
     inkscape:cx="38.168577"
     inkscape:cy="91.846925"
     inkscape:window-width="2560"
     inkscape:window-height="1362"
     inkscape:window-x="0"
     inkscape:window-y="0"
     inkscape:window-maximized="1"
     inkscape:current-layer="layer2" />
  <defs
     id="defs1" />
  <g
     inkscape:label="Border"
     inkscape:groupmode="layer"
     id="layer1"
     transform="translate(-1.0583318,-9.2604152)"
     sodipodi:insensitive="true"
     style="display:none">
    <g
       transform="matrix(0.26215626,0,0,0.24144272,80.829458,-90.453708)"
       id="layer1-26"
       inkscape:label="Layer 1">
      <rect
         style="fill:#ffffff;stroke:#000000;stroke-width:1.009;stroke-miterlimit:4;stroke-dasharray:none;stroke-dashoffset:0;stroke-opacity:1"
         id="rect6731-9-76"
         width="78.56237"
         height="114.96053"
         x="-303.78397"
         y="413.49738"
         ry="5.4056678" />
    </g>
  </g>
  <g
     inkscape:groupmode="layer"
     id="layer2"
     inkscape:label="Border 1">
    <g
       id="g50129"
       inkscape:label="8"
       style="display:inline"
       transform="matrix(0.26458333,0,0,0.26458333,-169.49064,-73.726569)">
      <g
         id="layer47"
         inkscape:label="Linked1"
         transform="matrix(0.87677154,0,0,0.87677154,818.49502,31.276845)">
        <path
           id="use74915"
           style="display:inline;fill:#000000;fill-opacity:1;fill-rule:nonzero;stroke-width:1.00891"
           inkscape:label="Outer Circle"
           d="m -171.65625,288.42383 a 14.132857,14.132857 0 0 0 -14.13282,14.13281 14.132857,14.132857 0 0 0 14.13282,14.13281 14.132857,14.132857 0 0 0 14.13281,-14.13281 14.132857,14.132857 0 0 0 -14.13281,-14.13281 z m 0,1.88476 a 12.24685,12.24685 0 0 1 12.24805,12.24805 12.24685,12.24685 0 0 1 -12.24805,12.2461 12.24685,12.24685 0 0 1 -12.2461,-12.2461 12.24685,12.24685 0 0 1 12.2461,-12.24805 z" />
        <path
           id="use74917"
           style="display:inline;fill:#000000;fill-opacity:1;fill-rule:nonzero;stroke-width:0.760539"
           inkscape:label="Inner Circle"
           d="m -171.65625,291.90234 a 10.653659,10.653659 0 0 0 -10.65235,10.6543 10.653659,10.653659 0 0 0 10.65235,10.65235 10.653659,10.653659 0 0 0 10.6543,-10.65235 10.653659,10.653659 0 0 0 -10.6543,-10.6543 z m -0.0586,2.08204 a 3.3021712,1.6510856 0 0 1 3.30274,1.65039 3.3021712,1.6510856 0 0 1 -3.30274,1.65234 3.3021712,1.6510856 0 0 1 -3.30273,-1.65234 3.3021712,1.6510856 0 0 1 3.30273,-1.65039 z m 5.52344,2.91992 a 3.3021712,1.6510856 68.790743 0 1 2.52149,2.5332 3.3021712,1.6510856 68.790743 0 1 -0.34375,3.67578 3.3021712,1.6510856 68.790743 0 1 -2.73438,-2.48242 3.3021712,1.6510856 68.790743 0 1 0.34375,-3.67578 3.3021712,1.6510856 68.790743 0 1 0.21289,-0.0508 z m -10.68945,0.45312 a 1.6510856,3.3021712 20.130422 0 1 0.21289,0.0469 1.6510856,3.3021712 20.130422 0 1 0.41406,3.66992 1.6510856,3.3021712 20.130422 0 1 -2.6875,2.53125 1.6510856,3.3021712 20.130422 0 1 -0.41406,-3.66797 1.6510856,3.3021712 20.130422 0 1 2.47461,-2.58008 z m 5.22461,1.9043 a 3.2938237,3.2938237 0 0 1 3.29492,3.29492 3.2938237,3.2938237 0 0 1 -3.29492,3.29297 3.2938237,3.2938237 0 0 1 -3.29297,-3.29297 3.2938237,3.2938237 0 0 1 3.29297,-3.29492 z m 0,1.37305 a 1.9212364,1.9212364 0 0 0 -1.91993,1.92187 1.9212364,1.9212364 0 0 0 1.91993,1.91992 1.9212364,1.9212364 0 0 0 1.92187,-1.91992 1.9212364,1.9212364 0 0 0 -1.92187,-1.92187 z m 6.125,4.40234 a 1.6510856,3.3021712 49.184859 0 1 0.875,0.33594 1.6510856,3.3021712 49.184859 0 1 -1.41992,3.4082 1.6510856,3.3021712 49.184859 0 1 -3.58008,0.9082 1.6510856,3.3021712 49.184859 0 1 1.41992,-3.4082 1.6510856,3.3021712 49.184859 0 1 2.70508,-1.24414 z m -11.73438,0.38867 a 3.3021712,1.6510856 40.317175 0 1 2.71484,1.22071 3.3021712,1.6510856 40.317175 0 1 1.44922,3.39648 3.3021712,1.6510856 40.317175 0 1 -3.58593,-0.87695 3.3021712,1.6510856 40.317175 0 1 -1.44922,-3.39649 3.3021712,1.6510856 40.317175 0 1 0.87109,-0.34375 z" />
      </g>
      <g
         id="g74884"
         inkscape:label="Linked2"
         transform="matrix(0.87677154,0,0,0.87677154,842.54218,31.276845)">
        <path
           id="use74919"
           style="display:inline;fill:#000000;fill-opacity:1;fill-rule:nonzero;stroke-width:1.00891"
           inkscape:label="Outer Circle"
           d="m -171.65625,288.42383 a 14.132857,14.132857 0 0 0 -14.13282,14.13281 14.132857,14.132857 0 0 0 14.13282,14.13281 14.132857,14.132857 0 0 0 14.13281,-14.13281 14.132857,14.132857 0 0 0 -14.13281,-14.13281 z m 0,1.88476 a 12.24685,12.24685 0 0 1 12.24805,12.24805 12.24685,12.24685 0 0 1 -12.24805,12.2461 12.24685,12.24685 0 0 1 -12.2461,-12.2461 12.24685,12.24685 0 0 1 12.2461,-12.24805 z" />
        <path
           id="use74921"
           style="display:inline;fill:#000000;fill-opacity:1;fill-rule:nonzero;stroke-width:0.760539"
           inkscape:label="Inner Circle"
           d="m -171.65625,291.90234 a 10.653659,10.653659 0 0 0 -10.65235,10.6543 10.653659,10.653659 0 0 0 10.65235,10.65235 10.653659,10.653659 0 0 0 10.6543,-10.65235 10.653659,10.653659 0 0 0 -10.6543,-10.6543 z m -0.0586,2.08204 a 3.3021712,1.6510856 0 0 1 3.30274,1.65039 3.3021712,1.6510856 0 0 1 -3.30274,1.65234 3.3021712,1.6510856 0 0 1 -3.30273,-1.65234 3.3021712,1.6510856 0 0 1 3.30273,-1.65039 z m 5.52344,2.91992 a 3.3021712,1.6510856 68.790743 0 1 2.52149,2.5332 3.3021712,1.6510856 68.790743 0 1 -0.34375,3.67578 3.3021712,1.6510856 68.790743 0 1 -2.73438,-2.48242 3.3021712,1.6510856 68.790743 0 1 0.34375,-3.67578 3.3021712,1.6510856 68.790743 0 1 0.21289,-0.0508 z m -10.68945,0.45312 a 1.6510856,3.3021712 20.130422 0 1 0.21289,0.0469 1.6510856,3.3021712 20.130422 0 1 0.41406,3.66992 1.6510856,3.3021712 20.130422 0 1 -2.6875,2.53125 1.6510856,3.3021712 20.130422 0 1 -0.41406,-3.66797 1.6510856,3.3021712 20.130422 0 1 2.47461,-2.58008 z m 5.22461,1.9043 a 3.2938237,3.2938237 0 0 1 3.29492,3.29492 3.2938237,3.2938237 0 0 1 -3.29492,3.29297 3.2938237,3.2938237 0 0 1 -3.29297,-3.29297 3.2938237,3.2938237 0 0 1 3.29297,-3.29492 z m 0,1.37305 a 1.9212364,1.9212364 0 0 0 -1.91993,1.92187 1.9212364,1.9212364 0 0 0 1.91993,1.91992 1.9212364,1.9212364 0 0 0 1.92187,-1.91992 1.9212364,1.9212364 0 0 0 -1.92187,-1.92187 z m 6.125,4.40234 a 1.6510856,3.3021712 49.184859 0 1 0.875,0.33594 1.6510856,3.3021712 49.184859 0 1 -1.41992,3.4082 1.6510856,3.3021712 49.184859 0 1 -3.58008,0.9082 1.6510856,3.3021712 49.184859 0 1 1.41992,-3.4082 1.6510856,3.3021712 49.184859 0 1 2.70508,-1.24414 z m -11.73438,0.38867 a 3.3021712,1.6510856 40.317175 0 1 2.71484,1.22071 3.3021712,1.6510856 40.317175 0 1 1.44922,3.39648 3.3021712,1.6510856 40.317175 0 1 -3.58593,-0.87695 3.3021712,1.6510856 40.317175 0 1 -1.44922,-3.39649 3.3021712,1.6510856 40.317175 0 1 0.87109,-0.34375 z" />
      </g>
      <g
         id="g74886"
         inkscape:label="Linked3"
         transform="matrix(0.87677154,0,0,0.87677154,818.49502,54.626733)">
        <path
           id="use74923"
           style="display:inline;fill:#000000;fill-opacity:1;fill-rule:nonzero;stroke-width:1.00891"
           inkscape:label="Outer Circle"
           d="m -171.65625,288.42383 a 14.132857,14.132857 0 0 0 -14.13282,14.13281 14.132857,14.132857 0 0 0 14.13282,14.13281 14.132857,14.132857 0 0 0 14.13281,-14.13281 14.132857,14.132857 0 0 0 -14.13281,-14.13281 z m 0,1.88476 a 12.24685,12.24685 0 0 1 12.24805,12.24805 12.24685,12.24685 0 0 1 -12.24805,12.2461 12.24685,12.24685 0 0 1 -12.2461,-12.2461 12.24685,12.24685 0 0 1 12.2461,-12.24805 z" />
        <path
           id="use74925"
           style="display:inline;fill:#000000;fill-opacity:1;fill-rule:nonzero;stroke-width:0.760539"
           inkscape:label="Inner Circle"
           d="m -171.65625,291.90234 a 10.653659,10.653659 0 0 0 -10.65235,10.6543 10.653659,10.653659 0 0 0 10.65235,10.65235 10.653659,10.653659 0 0 0 10.6543,-10.65235 10.653659,10.653659 0 0 0 -10.6543,-10.6543 z m -0.0586,2.08204 a 3.3021712,1.6510856 0 0 1 3.30274,1.65039 3.3021712,1.6510856 0 0 1 -3.30274,1.65234 3.3021712,1.6510856 0 0 1 -3.30273,-1.65234 3.3021712,1.6510856 0 0 1 3.30273,-1.65039 z m 5.52344,2.91992 a 3.3021712,1.6510856 68.790743 0 1 2.52149,2.5332 3.3021712,1.6510856 68.790743 0 1 -0.34375,3.67578 3.3021712,1.6510856 68.790743 0 1 -2.73438,-2.48242 3.3021712,1.6510856 68.790743 0 1 0.34375,-3.67578 3.3021712,1.6510856 68.790743 0 1 0.21289,-0.0508 z m -10.68945,0.45312 a 1.6510856,3.3021712 20.130422 0 1 0.21289,0.0469 1.6510856,3.3021712 20.130422 0 1 0.41406,3.66992 1.6510856,3.3021712 20.130422 0 1 -2.6875,2.53125 1.6510856,3.3021712 20.130422 0 1 -0.41406,-3.66797 1.6510856,3.3021712 20.130422 0 1 2.47461,-2.58008 z m 5.22461,1.9043 a 3.2938237,3.2938237 0 0 1 3.29492,3.29492 3.2938237,3.2938237 0 0 1 -3.29492,3.29297 3.2938237,3.2938237 0 0 1 -3.29297,-3.29297 3.2938237,3.2938237 0 0 1 3.29297,-3.29492 z m 0,1.37305 a 1.9212364,1.9212364 0 0 0 -1.91993,1.92187 1.9212364,1.9212364 0 0 0 1.91993,1.91992 1.9212364,1.9212364 0 0 0 1.92187,-1.91992 1.9212364,1.9212364 0 0 0 -1.92187,-1.92187 z m 6.125,4.40234 a 1.6510856,3.3021712 49.184859 0 1 0.875,0.33594 1.6510856,3.3021712 49.184859 0 1 -1.41992,3.4082 1.6510856,3.3021712 49.184859 0 1 -3.58008,0.9082 1.6510856,3.3021712 49.184859 0 1 1.41992,-3.4082 1.6510856,3.3021712 49.184859 0 1 2.70508,-1.24414 z m -11.73438,0.38867 a 3.3021712,1.6510856 40.317175 0 1 2.71484,1.22071 3.3021712,1.6510856 40.317175 0 1 1.44922,3.39648 3.3021712,1.6510856 40.317175 0 1 -3.58593,-0.87695 3.3021712,1.6510856 40.317175 0 1 -1.44922,-3.39649 3.3021712,1.6510856 40.317175 0 1 0.87109,-0.34375 z" />
      </g>
      <g
         id="g74888"
         inkscape:label="Linked4"
         transform="matrix(0.87677154,0,0,0.87677154,842.54218,54.626733)">
        <path
           id="use74927"
           style="display:inline;fill:#000000;fill-opacity:1;fill-rule:nonzero;stroke-width:1.00891"
           inkscape:label="Outer Circle"
           d="m -171.65625,288.42383 a 14.132857,14.132857 0 0 0 -14.13282,14.13281 14.132857,14.132857 0 0 0 14.13282,14.13281 14.132857,14.132857 0 0 0 14.13281,-14.13281 14.132857,14.132857 0 0 0 -14.13281,-14.13281 z m 0,1.88476 a 12.24685,12.24685 0 0 1 12.24805,12.24805 12.24685,12.24685 0 0 1 -12.24805,12.2461 12.24685,12.24685 0 0 1 -12.2461,-12.2461 12.24685,12.24685 0 0 1 12.2461,-12.24805 z" />
        <path
           id="use74929"
           style="display:inline;fill:#000000;fill-opacity:1;fill-rule:nonzero;stroke-width:0.760539"
           inkscape:label="Inner Circle"
           d="m -171.65625,291.90234 a 10.653659,10.653659 0 0 0 -10.65235,10.6543 10.653659,10.653659 0 0 0 10.65235,10.65235 10.653659,10.653659 0 0 0 10.6543,-10.65235 10.653659,10.653659 0 0 0 -10.6543,-10.6543 z m -0.0586,2.08204 a 3.3021712,1.6510856 0 0 1 3.30274,1.65039 3.3021712,1.6510856 0 0 1 -3.30274,1.65234 3.3021712,1.6510856 0 0 1 -3.30273,-1.65234 3.3021712,1.6510856 0 0 1 3.30273,-1.65039 z m 5.52344,2.91992 a 3.3021712,1.6510856 68.790743 0 1 2.52149,2.5332 3.3021712,1.6510856 68.790743 0 1 -0.34375,3.67578 3.3021712,1.6510856 68.790743 0 1 -2.73438,-2.48242 3.3021712,1.6510856 68.790743 0 1 0.34375,-3.67578 3.3021712,1.6510856 68.790743 0 1 0.21289,-0.0508 z m -10.68945,0.45312 a 1.6510856,3.3021712 20.130422 0 1 0.21289,0.0469 1.6510856,3.3021712 20.130422 0 1 0.41406,3.66992 1.6510856,3.3021712 20.130422 0 1 -2.6875,2.53125 1.6510856,3.3021712 20.130422 0 1 -0.41406,-3.66797 1.6510856,3.3021712 20.130422 0 1 2.47461,-2.58008 z m 5.22461,1.9043 a 3.2938237,3.2938237 0 0 1 3.29492,3.29492 3.2938237,3.2938237 0 0 1 -3.29492,3.29297 3.2938237,3.2938237 0 0 1 -3.29297,-3.29297 3.2938237,3.2938237 0 0 1 3.29297,-3.29492 z m 0,1.37305 a 1.9212364,1.9212364 0 0 0 -1.91993,1.92187 1.9212364,1.9212364 0 0 0 1.91993,1.91992 1.9212364,1.9212364 0 0 0 1.92187,-1.91992 1.9212364,1.9212364 0 0 0 -1.92187,-1.92187 z m 6.125,4.40234 a 1.6510856,3.3021712 49.184859 0 1 0.875,0.33594 1.6510856,3.3021712 49.184859 0 1 -1.41992,3.4082 1.6510856,3.3021712 49.184859 0 1 -3.58008,0.9082 1.6510856,3.3021712 49.184859 0 1 1.41992,-3.4082 1.6510856,3.3021712 49.184859 0 1 2.70508,-1.24414 z m -11.73438,0.38867 a 3.3021712,1.6510856 40.317175 0 1 2.71484,1.22071 3.3021712,1.6510856 40.317175 0 1 1.44922,3.39648 3.3021712,1.6510856 40.317175 0 1 -3.58593,-0.87695 3.3021712,1.6510856 40.317175 0 1 -1.44922,-3.39649 3.3021712,1.6510856 40.317175 0 1 0.87109,-0.34375 z" />
      </g>
      <g
         id="g74890"
         inkscape:label="Linked5"
         transform="matrix(0.87677154,0,0,0.87677154,818.49502,78.096849)">
        <path
           id="use74931"
           style="display:inline;fill:#000000;fill-opacity:1;fill-rule:nonzero;stroke-width:1.00891"
           inkscape:label="Outer Circle"
           d="m -171.65625,288.42383 a 14.132857,14.132857 0 0 0 -14.13282,14.13281 14.132857,14.132857 0 0 0 14.13282,14.13281 14.132857,14.132857 0 0 0 14.13281,-14.13281 14.132857,14.132857 0 0 0 -14.13281,-14.13281 z m 0,1.88476 a 12.24685,12.24685 0 0 1 12.24805,12.24805 12.24685,12.24685 0 0 1 -12.24805,12.2461 12.24685,12.24685 0 0 1 -12.2461,-12.2461 12.24685,12.24685 0 0 1 12.2461,-12.24805 z" />
        <path
           id="use74933"
           style="display:inline;fill:#000000;fill-opacity:1;fill-rule:nonzero;stroke-width:0.760539"
           inkscape:label="Inner Circle"
           d="m -171.65625,291.90234 a 10.653659,10.653659 0 0 0 -10.65235,10.6543 10.653659,10.653659 0 0 0 10.65235,10.65235 10.653659,10.653659 0 0 0 10.6543,-10.65235 10.653659,10.653659 0 0 0 -10.6543,-10.6543 z m -0.0586,2.08204 a 3.3021712,1.6510856 0 0 1 3.30274,1.65039 3.3021712,1.6510856 0 0 1 -3.30274,1.65234 3.3021712,1.6510856 0 0 1 -3.30273,-1.65234 3.3021712,1.6510856 0 0 1 3.30273,-1.65039 z m 5.52344,2.91992 a 3.3021712,1.6510856 68.790743 0 1 2.52149,2.5332 3.3021712,1.6510856 68.790743 0 1 -0.34375,3.67578 3.3021712,1.6510856 68.790743 0 1 -2.73438,-2.48242 3.3021712,1.6510856 68.790743 0 1 0.34375,-3.67578 3.3021712,1.6510856 68.790743 0 1 0.21289,-0.0508 z m -10.68945,0.45312 a 1.6510856,3.3021712 20.130422 0 1 0.21289,0.0469 1.6510856,3.3021712 20.130422 0 1 0.41406,3.66992 1.6510856,3.3021712 20.130422 0 1 -2.6875,2.53125 1.6510856,3.3021712 20.130422 0 1 -0.41406,-3.66797 1.6510856,3.3021712 20.130422 0 1 2.47461,-2.58008 z m 5.22461,1.9043 a 3.2938237,3.2938237 0 0 1 3.29492,3.29492 3.2938237,3.2938237 0 0 1 -3.29492,3.29297 3.2938237,3.2938237 0 0 1 -3.29297,-3.29297 3.2938237,3.2938237 0 0 1 3.29297,-3.29492 z m 0,1.37305 a 1.9212364,1.9212364 0 0 0 -1.91993,1.92187 1.9212364,1.9212364 0 0 0 1.91993,1.91992 1.9212364,1.9212364 0 0 0 1.92187,-1.91992 1.9212364,1.9212364 0 0 0 -1.92187,-1.92187 z m 6.125,4.40234 a 1.6510856,3.3021712 49.184859 0 1 0.875,0.33594 1.6510856,3.3021712 49.184859 0 1 -1.41992,3.4082 1.6510856,3.3021712 49.184859 0 1 -3.58008,0.9082 1.6510856,3.3021712 49.184859 0 1 1.41992,-3.4082 1.6510856,3.3021712 49.184859 0 1 2.70508,-1.24414 z m -11.73438,0.38867 a 3.3021712,1.6510856 40.317175 0 1 2.71484,1.22071 3.3021712,1.6510856 40.317175 0 1 1.44922,3.39648 3.3021712,1.6510856 40.317175 0 1 -3.58593,-0.87695 3.3021712,1.6510856 40.317175 0 1 -1.44922,-3.39649 3.3021712,1.6510856 40.317175 0 1 0.87109,-0.34375 z" />
      </g>
      <g
         id="g74892"
         inkscape:label="Linked6"
         transform="matrix(0.87677154,0,0,0.87677154,842.54218,78.096849)">
        <path
           id="use74935"
           style="display:inline;fill:#000000;fill-opacity:1;fill-rule:nonzero;stroke-width:1.00891"
           inkscape:label="Outer Circle"
           d="m -171.65625,288.42383 a 14.132857,14.132857 0 0 0 -14.13282,14.13281 14.132857,14.132857 0 0 0 14.13282,14.13281 14.132857,14.132857 0 0 0 14.13281,-14.13281 14.132857,14.132857 0 0 0 -14.13281,-14.13281 z m 0,1.88476 a 12.24685,12.24685 0 0 1 12.24805,12.24805 12.24685,12.24685 0 0 1 -12.24805,12.2461 12.24685,12.24685 0 0 1 -12.2461,-12.2461 12.24685,12.24685 0 0 1 12.2461,-12.24805 z" />
        <path
           id="use74937"
           style="display:inline;fill:#000000;fill-opacity:1;fill-rule:nonzero;stroke-width:0.760539"
           inkscape:label="Inner Circle"
           d="m -171.65625,291.90234 a 10.653659,10.653659 0 0 0 -10.65235,10.6543 10.653659,10.653659 0 0 0 10.65235,10.65235 10.653659,10.653659 0 0 0 10.6543,-10.65235 10.653659,10.653659 0 0 0 -10.6543,-10.6543 z m -0.0586,2.08204 a 3.3021712,1.6510856 0 0 1 3.30274,1.65039 3.3021712,1.6510856 0 0 1 -3.30274,1.65234 3.3021712,1.6510856 0 0 1 -3.30273,-1.65234 3.3021712,1.6510856 0 0 1 3.30273,-1.65039 z m 5.52344,2.91992 a 3.3021712,1.6510856 68.790743 0 1 2.52149,2.5332 3.3021712,1.6510856 68.790743 0 1 -0.34375,3.67578 3.3021712,1.6510856 68.790743 0 1 -2.73438,-2.48242 3.3021712,1.6510856 68.790743 0 1 0.34375,-3.67578 3.3021712,1.6510856 68.790743 0 1 0.21289,-0.0508 z m -10.68945,0.45312 a 1.6510856,3.3021712 20.130422 0 1 0.21289,0.0469 1.6510856,3.3021712 20.130422 0 1 0.41406,3.66992 1.6510856,3.3021712 20.130422 0 1 -2.6875,2.53125 1.6510856,3.3021712 20.130422 0 1 -0.41406,-3.66797 1.6510856,3.3021712 20.130422 0 1 2.47461,-2.58008 z m 5.22461,1.9043 a 3.2938237,3.2938237 0 0 1 3.29492,3.29492 3.2938237,3.2938237 0 0 1 -3.29492,3.29297 3.2938237,3.2938237 0 0 1 -3.29297,-3.29297 3.2938237,3.2938237 0 0 1 3.29297,-3.29492 z m 0,1.37305 a 1.9212364,1.9212364 0 0 0 -1.91993,1.92187 1.9212364,1.9212364 0 0 0 1.91993,1.91992 1.9212364,1.9212364 0 0 0 1.92187,-1.91992 1.9212364,1.9212364 0 0 0 -1.92187,-1.92187 z m 6.125,4.40234 a 1.6510856,3.3021712 49.184859 0 1 0.875,0.33594 1.6510856,3.3021712 49.184859 0 1 -1.41992,3.4082 1.6510856,3.3021712 49.184859 0 1 -3.58008,0.9082 1.6510856,3.3021712 49.184859 0 1 1.41992,-3.4082 1.6510856,3.3021712 49.184859 0 1 2.70508,-1.24414 z m -11.73438,0.38867 a 3.3021712,1.6510856 40.317175 0 1 2.71484,1.22071 3.3021712,1.6510856 40.317175 0 1 1.44922,3.39648 3.3021712,1.6510856 40.317175 0 1 -3.58593,-0.87695 3.3021712,1.6510856 40.317175 0 1 -1.44922,-3.39649 3.3021712,1.6510856 40.317175 0 1 0.87109,-0.34375 z" />
      </g>
      <g
         id="g74894"
         inkscape:label="Linked7"
         transform="matrix(0.87677154,0,0,0.87677154,818.49502,101.30703)">
        <path
           id="use74939"
           style="display:inline;fill:#000000;fill-opacity:1;fill-rule:nonzero;stroke-width:1.00891"
           inkscape:label="Outer Circle"
           d="m -171.65625,288.42383 a 14.132857,14.132857 0 0 0 -14.13282,14.13281 14.132857,14.132857 0 0 0 14.13282,14.13281 14.132857,14.132857 0 0 0 14.13281,-14.13281 14.132857,14.132857 0 0 0 -14.13281,-14.13281 z m 0,1.88476 a 12.24685,12.24685 0 0 1 12.24805,12.24805 12.24685,12.24685 0 0 1 -12.24805,12.2461 12.24685,12.24685 0 0 1 -12.2461,-12.2461 12.24685,12.24685 0 0 1 12.2461,-12.24805 z" />
        <path
           id="use74941"
           style="display:inline;fill:#000000;fill-opacity:1;fill-rule:nonzero;stroke-width:0.760539"
           inkscape:label="Inner Circle"
           d="m -171.65625,291.90234 a 10.653659,10.653659 0 0 0 -10.65235,10.6543 10.653659,10.653659 0 0 0 10.65235,10.65235 10.653659,10.653659 0 0 0 10.6543,-10.65235 10.653659,10.653659 0 0 0 -10.6543,-10.6543 z m -0.0586,2.08204 a 3.3021712,1.6510856 0 0 1 3.30274,1.65039 3.3021712,1.6510856 0 0 1 -3.30274,1.65234 3.3021712,1.6510856 0 0 1 -3.30273,-1.65234 3.3021712,1.6510856 0 0 1 3.30273,-1.65039 z m 5.52344,2.91992 a 3.3021712,1.6510856 68.790743 0 1 2.52149,2.5332 3.3021712,1.6510856 68.790743 0 1 -0.34375,3.67578 3.3021712,1.6510856 68.790743 0 1 -2.73438,-2.48242 3.3021712,1.6510856 68.790743 0 1 0.34375,-3.67578 3.3021712,1.6510856 68.790743 0 1 0.21289,-0.0508 z m -10.68945,0.45312 a 1.6510856,3.3021712 20.130422 0 1 0.21289,0.0469 1.6510856,3.3021712 20.130422 0 1 0.41406,3.66992 1.6510856,3.3021712 20.130422 0 1 -2.6875,2.53125 1.6510856,3.3021712 20.130422 0 1 -0.41406,-3.66797 1.6510856,3.3021712 20.130422 0 1 2.47461,-2.58008 z m 5.22461,1.9043 a 3.2938237,3.2938237 0 0 1 3.29492,3.29492 3.2938237,3.2938237 0 0 1 -3.29492,3.29297 3.2938237,3.2938237 0 0 1 -3.29297,-3.29297 3.2938237,3.2938237 0 0 1 3.29297,-3.29492 z m 0,1.37305 a 1.9212364,1.9212364 0 0 0 -1.91993,1.92187 1.9212364,1.9212364 0 0 0 1.91993,1.91992 1.9212364,1.9212364 0 0 0 1.92187,-1.91992 1.9212364,1.9212364 0 0 0 -1.92187,-1.92187 z m 6.125,4.40234 a 1.6510856,3.3021712 49.184859 0 1 0.875,0.33594 1.6510856,3.3021712 49.184859 0 1 -1.41992,3.4082 1.6510856,3.3021712 49.184859 0 1 -3.58008,0.9082 1.6510856,3.3021712 49.184859 0 1 1.41992,-3.4082 1.6510856,3.3021712 49.184859 0 1 2.70508,-1.24414 z m -11.73438,0.38867 a 3.3021712,1.6510856 40.317175 0 1 2.71484,1.22071 3.3021712,1.6510856 40.317175 0 1 1.44922,3.39648 3.3021712,1.6510856 40.317175 0 1 -3.58593,-0.87695 3.3021712,1.6510856 40.317175 0 1 -1.44922,-3.39649 3.3021712,1.6510856 40.317175 0 1 0.87109,-0.34375 z" />
      </g>
      <g
         id="g74896"
         inkscape:label="Linked8"
         transform="matrix(0.87677154,0,0,0.87677154,842.54218,101.30703)">
        <path
           id="use74943"
           style="display:inline;fill:#000000;fill-opacity:1;fill-rule:nonzero;stroke-width:1.00891"
           inkscape:label="Outer Circle"
           d="m -171.65625,288.42383 a 14.132857,14.132857 0 0 0 -14.13282,14.13281 14.132857,14.132857 0 0 0 14.13282,14.13281 14.132857,14.132857 0 0 0 14.13281,-14.13281 14.132857,14.132857 0 0 0 -14.13281,-14.13281 z m 0,1.88476 a 12.24685,12.24685 0 0 1 12.24805,12.24805 12.24685,12.24685 0 0 1 -12.24805,12.2461 12.24685,12.24685 0 0 1 -12.2461,-12.2461 12.24685,12.24685 0 0 1 12.2461,-12.24805 z" />
        <path
           id="use74945"
           style="display:inline;fill:#000000;fill-opacity:1;fill-rule:nonzero;stroke-width:0.760539"
           inkscape:label="Inner Circle"
           d="m -171.65625,291.90234 a 10.653659,10.653659 0 0 0 -10.65235,10.6543 10.653659,10.653659 0 0 0 10.65235,10.65235 10.653659,10.653659 0 0 0 10.6543,-10.65235 10.653659,10.653659 0 0 0 -10.6543,-10.6543 z m -0.0586,2.08204 a 3.3021712,1.6510856 0 0 1 3.30274,1.65039 3.3021712,1.6510856 0 0 1 -3.30274,1.65234 3.3021712,1.6510856 0 0 1 -3.30273,-1.65234 3.3021712,1.6510856 0 0 1 3.30273,-1.65039 z m 5.52344,2.91992 a 3.3021712,1.6510856 68.790743 0 1 2.52149,2.5332 3.3021712,1.6510856 68.790743 0 1 -0.34375,3.67578 3.3021712,1.6510856 68.790743 0 1 -2.73438,-2.48242 3.3021712,1.6510856 68.790743 0 1 0.34375,-3.67578 3.3021712,1.6510856 68.790743 0 1 0.21289,-0.0508 z m -10.68945,0.45312 a 1.6510856,3.3021712 20.130422 0 1 0.21289,0.0469 1.6510856,3.3021712 20.130422 0 1 0.41406,3.66992 1.6510856,3.3021712 20.130422 0 1 -2.6875,2.53125 1.6510856,3.3021712 20.130422 0 1 -0.41406,-3.66797 1.6510856,3.3021712 20.130422 0 1 2.47461,-2.58008 z m 5.22461,1.9043 a 3.2938237,3.2938237 0 0 1 3.29492,3.29492 3.2938237,3.2938237 0 0 1 -3.29492,3.29297 3.2938237,3.2938237 0 0 1 -3.29297,-3.29297 3.2938237,3.2938237 0 0 1 3.29297,-3.29492 z m 0,1.37305 a 1.9212364,1.9212364 0 0 0 -1.91993,1.92187 1.9212364,1.9212364 0 0 0 1.91993,1.91992 1.9212364,1.9212364 0 0 0 1.92187,-1.91992 1.9212364,1.9212364 0 0 0 -1.92187,-1.92187 z m 6.125,4.40234 a 1.6510856,3.3021712 49.184859 0 1 0.875,0.33594 1.6510856,3.3021712 49.184859 0 1 -1.41992,3.4082 1.6510856,3.3021712 49.184859 0 1 -3.58008,0.9082 1.6510856,3.3021712 49.184859 0 1 1.41992,-3.4082 1.6510856,3.3021712 49.184859 0 1 2.70508,-1.24414 z m -11.73438,0.38867 a 3.3021712,1.6510856 40.317175 0 1 2.71484,1.22071 3.3021712,1.6510856 40.317175 0 1 1.44922,3.39648 3.3021712,1.6510856 40.317175 0 1 -3.58593,-0.87695 3.3021712,1.6510856 40.317175 0 1 -1.44922,-3.39649 3.3021712,1.6510856 40.317175 0 1 0.87109,-0.34375 z" />
      </g>
    </g>
  </g>
</svg>
