<?xml version="1.0" encoding="UTF-8" standalone="no"?>
<!-- Created with Inkscape (http://www.inkscape.org/) -->

<svg
   width="20.860132mm"
   height="28mm"
   viewBox="0 0 20.860132 28"
   version="1.1"
   id="svg1"
   sodipodi:docname="Sou3.svg"
   inkscape:version="1.3.1 (91b66b0783, 2023-11-16)"
   xmlns:inkscape="http://www.inkscape.org/namespaces/inkscape"
   xmlns:sodipodi="http://sodipodi.sourceforge.net/DTD/sodipodi-0.dtd"
   xmlns="http://www.w3.org/2000/svg"
   xmlns:svg="http://www.w3.org/2000/svg">
  <sodipodi:namedview
     id="namedview1"
     pagecolor="#ffffff"
     bordercolor="#000000"
     borderopacity="0.25"
     inkscape:showpageshadow="2"
     inkscape:pageopacity="0.0"
     inkscape:pagecheckerboard="0"
     inkscape:deskcolor="#d1d1d1"
     inkscape:document-units="mm"
     inkscape:zoom="5.8356546"
     inkscape:cx="48.580668"
     inkscape:cy="68.372792"
     inkscape:window-width="2560"
     inkscape:window-height="1362"
     inkscape:window-x="0"
     inkscape:window-y="0"
     inkscape:window-maximized="1"
     inkscape:current-layer="layer2" />
  <defs
     id="defs1" />
  <g
     inkscape:label="Border"
     inkscape:groupmode="layer"
     id="layer1"
     transform="translate(-1.0583318,-9.2604152)"
     sodipodi:insensitive="true"
     style="display:none">
    <g
       transform="matrix(0.26215626,0,0,0.24144272,80.829458,-90.453708)"
       id="layer1-26"
       inkscape:label="Layer 1">
      <rect
         style="fill:#ffffff;stroke:#000000;stroke-width:1.009;stroke-miterlimit:4;stroke-dasharray:none;stroke-dashoffset:0;stroke-opacity:1"
         id="rect6731-9-76"
         width="78.56237"
         height="114.96053"
         x="-303.78397"
         y="413.49738"
         ry="5.4056678" />
    </g>
  </g>
  <g
     inkscape:groupmode="layer"
     id="layer2"
     inkscape:label="Border 1">
    <g
       id="g50181"
       inkscape:label="3"
       style="display:inline"
       transform="matrix(0.26458333,0,0,0.26458333,-63.606206,-5.1686828)">
      <path
         id="use114546"
         style="display:inline;fill:#18663d;fill-opacity:1;stroke-width:6.19666;stroke-linecap:round;stroke-linejoin:round"
         inkscape:label="Bamboo-Large-Original (Use for cloning, apply fill and stroke on clones)"
         d="m 279.97699,27.061332 a 5.3296882,0.97373057 0 0 0 -5.08984,0.691408 5.1894771,3.8749993 0 0 0 -3.24806,3.486329 5.1894771,3.8749993 0 0 0 3.70899,3.699217 v 9.730469 a 6.1453911,5.4023905 0 0 0 -3.71875,4.902343 6.1453911,5.4023905 0 0 0 3.71875,4.902343 v 8.062502 c -0.0173,0.01704 -0.0522,0.03066 -0.0625,0.04883 -0.29314,0.514751 -0.99225,1.090118 -1.54687,1.501954 a 3.4318043,3.4318042 0 0 0 -2.8711,3.341796 3.4318043,3.4318042 0 0 0 3.43164,3.431641 3.4318043,3.4318042 0 0 0 2.1875,-0.906251 3.5391248,1.1797081 0 0 1 3.42383,-0.888671 3.5391248,1.1797081 0 0 1 3.5,1.01367 3.4318043,3.4318042 0 0 0 2.06641,0.781252 3.4318043,3.4318042 0 0 0 3.43164,-3.431641 3.4318043,3.4318042 0 0 0 -2.73828,-3.361329 c -1.23212,-0.928048 -1.45118,-1.91211 -1.45118,-1.91211 0,0 -0.0155,8e-6 -0.0156,0 v -7.794921 a 6.1453911,5.4023905 0 0 0 3.46485,-4.789063 6.1453911,5.4023905 0 0 0 -3.46485,-4.861327 v -9.853517 a 5.1894771,3.8749993 0 0 0 3.4043,-3.617185 5.1894771,3.8749993 0 0 0 -3.13476,-3.54297 5.3296882,0.97373057 0 0 0 -4.9961,-0.634767 z m -0.14844,1.312502 a 3.0581223,3.0581224 0 0 1 3.05859,3.058594 3.0581223,3.0581224 0 0 1 -0.99413,2.207031 v 0.541015 10.134764 c 0,0.277002 -0.22301,0.500002 -0.50001,0.500002 h -3.08007 c -0.277,0 -0.5,-0.223 -0.5,-0.500002 V 34.180474 33.688287 a 3.0581223,3.0581224 0 0 1 -1.04297,-2.255859 3.0581223,3.0581224 0 0 1 0.0117,-0.07617 3.0261582,2.5893932 0 0 1 -0.0156,-0.0586 3.0261582,2.5893932 0 0 1 0.043,-0.113281 3.0581223,3.0581224 0 0 1 3.01953,-2.810546 z m -1.89258,17.554685 h 4.00977 c 0.70227,0 1.26758,0.446003 1.26758,1.000002 v 0.232422 c 0,0.553998 -0.56531,1.000001 -1.26758,1.000001 h -4.00977 c -0.70226,0 -1.26757,-0.446003 -1.26757,-1.000001 v -0.232422 c 0,-0.553999 0.56531,-1.000002 1.26757,-1.000002 z m 0.0215,3.703128 h 4.00977 c 0.70227,0 1.26757,0.394964 1.26757,0.886718 v 0.208985 c 0,0.491746 -0.5653,0.886718 -1.26757,0.886718 h -4.00977 c -0.70227,0 -1.26758,-0.394972 -1.26758,-0.886718 v -0.208985 c 0,-0.491754 0.56531,-0.886718 1.26758,-0.886718 z m 0.35547,3.603513 h 3.08008 c 0.277,0 0.5,0.208544 0.5,0.466798 V 65.32891 c 0,0.08329 -0.0296,0.157083 -0.0703,0.224611 a 2.0370196,1.2230656 0 0 1 -1.97266,0.92578 2.0370196,1.2230656 0 0 1 -1.97265,-0.933592 c -0.0376,-0.06556 -0.0645,-0.136953 -0.0645,-0.216799 V 65.25665 53.701962 c 0,-0.258254 0.223,-0.466798 0.5,-0.466798 z" />
      <path
         id="use114542"
         style="display:inline;fill:#18663d;fill-opacity:1;stroke-width:6.19666;stroke-linecap:round;stroke-linejoin:round"
         inkscape:label="Bamboo-Large-Original (Use for cloning, apply fill and stroke on clones)"
         d="m 256.74505,74.037002 a 5.3296882,0.97373057 0 0 0 -5.08984,0.691408 5.1894771,3.8749993 0 0 0 -3.24806,3.486329 5.1894771,3.8749993 0 0 0 3.70899,3.699217 v 9.730469 a 6.1453911,5.4023905 0 0 0 -3.71875,4.902343 6.1453911,5.4023905 0 0 0 3.71875,4.902342 v 8.0625 c -0.0173,0.017 -0.0522,0.0307 -0.0625,0.0488 -0.29314,0.51475 -0.99225,1.09012 -1.54687,1.50196 a 3.4318043,3.4318042 0 0 0 -2.8711,3.34179 3.4318043,3.4318042 0 0 0 3.43164,3.43164 3.4318043,3.4318042 0 0 0 2.1875,-0.90625 3.5391248,1.1797081 0 0 1 3.42383,-0.88867 3.5391248,1.1797081 0 0 1 3.5,1.01367 3.4318043,3.4318042 0 0 0 2.06641,0.78125 3.4318043,3.4318042 0 0 0 3.43164,-3.43164 3.4318043,3.4318042 0 0 0 -2.73828,-3.36133 c -1.23212,-0.92804 -1.45118,-1.91211 -1.45118,-1.91211 0,0 -0.0155,1e-5 -0.0156,0 v -7.79492 a 6.1453911,5.4023905 0 0 0 3.46485,-4.78906 6.1453911,5.4023905 0 0 0 -3.46485,-4.861327 v -9.853517 a 5.1894771,3.8749993 0 0 0 3.4043,-3.617185 5.1894771,3.8749993 0 0 0 -3.13476,-3.54297 5.3296882,0.97373057 0 0 0 -4.9961,-0.634767 z m -0.14844,1.312502 a 3.0581223,3.0581224 0 0 1 3.05859,3.058594 3.0581223,3.0581224 0 0 1 -0.99413,2.207031 v 0.541015 10.134764 c 0,0.277002 -0.22301,0.500002 -0.50001,0.500002 h -3.08007 c -0.277,0 -0.5,-0.223 -0.5,-0.500002 V 81.156144 80.663957 a 3.0581223,3.0581224 0 0 1 -1.04297,-2.255859 3.0581223,3.0581224 0 0 1 0.0117,-0.07617 3.0261582,2.5893932 0 0 1 -0.0156,-0.0586 3.0261582,2.5893932 0 0 1 0.043,-0.113281 3.0581223,3.0581224 0 0 1 3.01953,-2.810546 z m -1.89258,17.554685 h 4.00977 c 0.70227,0 1.26758,0.446003 1.26758,1.000002 v 0.232422 c 0,0.553998 -0.56531,1.000001 -1.26758,1.000001 h -4.00977 c -0.70226,0 -1.26757,-0.446003 -1.26757,-1.000001 v -0.232422 c 0,-0.553999 0.56531,-1.000002 1.26757,-1.000002 z m 0.0215,3.703128 h 4.00977 c 0.70227,0 1.26757,0.394964 1.26757,0.886718 v 0.208985 c 0,0.491746 -0.5653,0.886718 -1.26757,0.886718 h -4.00977 c -0.70227,0 -1.26758,-0.394972 -1.26758,-0.886718 v -0.208985 c 0,-0.491754 0.56531,-0.886718 1.26758,-0.886718 z m 0.35547,3.603513 h 3.08008 c 0.277,0 0.5,0.20854 0.5,0.4668 v 11.62695 c 0,0.0833 -0.0296,0.15708 -0.0703,0.22461 a 2.0370196,1.2230656 0 0 1 -1.97266,0.92578 2.0370196,1.2230656 0 0 1 -1.97265,-0.93359 c -0.0376,-0.0656 -0.0645,-0.13695 -0.0645,-0.2168 v -0.0723 -11.55469 c 0,-0.25825 0.223,-0.4668 0.5,-0.4668 z" />
      <path
         id="use114539"
         style="display:inline;fill:#18663d;fill-opacity:1;stroke-width:6.19666;stroke-linecap:round;stroke-linejoin:round"
         inkscape:label="Bamboo-Large-Original (Use for cloning, apply fill and stroke on clones)"
         d="m 303.07696,74.037002 a 5.3296882,0.97373057 0 0 0 -5.08984,0.691408 5.1894771,3.8749993 0 0 0 -3.24806,3.486329 5.1894771,3.8749993 0 0 0 3.70899,3.699217 v 9.730469 a 6.1453911,5.4023905 0 0 0 -3.71875,4.902343 6.1453911,5.4023905 0 0 0 3.71875,4.902342 v 8.0625 c -0.0173,0.017 -0.0522,0.0307 -0.0625,0.0488 -0.29314,0.51475 -0.99225,1.09012 -1.54687,1.50196 a 3.4318043,3.4318042 0 0 0 -2.8711,3.34179 3.4318043,3.4318042 0 0 0 3.43164,3.43164 3.4318043,3.4318042 0 0 0 2.1875,-0.90625 3.5391248,1.1797081 0 0 1 3.42383,-0.88867 3.5391248,1.1797081 0 0 1 3.5,1.01367 3.4318043,3.4318042 0 0 0 2.06641,0.78125 3.4318043,3.4318042 0 0 0 3.43164,-3.43164 3.4318043,3.4318042 0 0 0 -2.73828,-3.36133 c -1.23212,-0.92804 -1.45118,-1.91211 -1.45118,-1.91211 0,0 -0.0155,1e-5 -0.0156,0 v -7.79492 a 6.1453911,5.4023905 0 0 0 3.46485,-4.78906 6.1453911,5.4023905 0 0 0 -3.46485,-4.861327 v -9.853517 a 5.1894771,3.8749993 0 0 0 3.4043,-3.617185 5.1894771,3.8749993 0 0 0 -3.13476,-3.54297 5.3296882,0.97373057 0 0 0 -4.9961,-0.634767 z m -0.14844,1.312502 a 3.0581223,3.0581224 0 0 1 3.05859,3.058594 3.0581223,3.0581224 0 0 1 -0.99413,2.207031 v 0.541015 10.134764 c 0,0.277002 -0.22301,0.500002 -0.50001,0.500002 h -3.08007 c -0.277,0 -0.5,-0.223 -0.5,-0.500002 V 81.156144 80.663957 a 3.0581223,3.0581224 0 0 1 -1.04297,-2.255859 3.0581223,3.0581224 0 0 1 0.0117,-0.07617 3.0261582,2.5893932 0 0 1 -0.0156,-0.0586 3.0261582,2.5893932 0 0 1 0.043,-0.113281 3.0581223,3.0581224 0 0 1 3.01953,-2.810546 z m -1.89258,17.554685 h 4.00977 c 0.70227,0 1.26758,0.446003 1.26758,1.000002 v 0.232422 c 0,0.553998 -0.56531,1.000001 -1.26758,1.000001 h -4.00977 c -0.70226,0 -1.26757,-0.446003 -1.26757,-1.000001 v -0.232422 c 0,-0.553999 0.56531,-1.000002 1.26757,-1.000002 z m 0.0215,3.703128 h 4.00977 c 0.70227,0 1.26757,0.394964 1.26757,0.886718 v 0.208985 c 0,0.491746 -0.5653,0.886718 -1.26757,0.886718 h -4.00977 c -0.70227,0 -1.26758,-0.394972 -1.26758,-0.886718 v -0.208985 c 0,-0.491754 0.56531,-0.886718 1.26758,-0.886718 z m 0.35547,3.603513 h 3.08008 c 0.277,0 0.5,0.20854 0.5,0.4668 v 11.62695 c 0,0.0833 -0.0296,0.15708 -0.0703,0.22461 a 2.0370196,1.2230656 0 0 1 -1.97266,0.92578 2.0370196,1.2230656 0 0 1 -1.97265,-0.93359 c -0.0376,-0.0656 -0.0645,-0.13695 -0.0645,-0.2168 v -0.0723 -11.55469 c 0,-0.25825 0.223,-0.4668 0.5,-0.4668 z" />
    </g>
  </g>
</svg>
